\relax 
\catcode `"\active 
\catcode `-\active 
\citation{bouchet}
\select@language{english}
\@writefile{toc}{\select@language{english}}
\@writefile{lof}{\select@language{english}}
\@writefile{lot}{\select@language{english}}
\select@language{english}
\@writefile{toc}{\select@language{english}}
\@writefile{lof}{\select@language{english}}
\@writefile{lot}{\select@language{english}}
\select@language{english}
\@writefile{toc}{\select@language{english}}
\@writefile{lof}{\select@language{english}}
\@writefile{lot}{\select@language{english}}
\@writefile{toc}{\contentsline {section}{\numberline {1}Introduction}{1}}
\@writefile{lof}{\contentsline {figure}{\numberline {1}{\ignorespaces  \rm  { \hspace  {0.1cm} Discussed design block scheme. Green area contains user-logic written in VHDL, blue area contains Microblaze design blocks, designed in Xilinx platform studio (XPS).}\relax }}{1}}
\providecommand*\caption@xref[2]{\@setref\relax\@undefined{#1}}
\newlabel{design_overall}{{1}{1}}
\citation{ug_temac}
\@writefile{toc}{\contentsline {section}{\numberline {2}Design overview}{2}}
\@writefile{toc}{\contentsline {subsection}{\numberline {2.1}Frame routing}{2}}
\@writefile{lof}{\contentsline {figure}{\numberline {2}{\ignorespaces  \rm  { \hspace  {0.1cm} Flow controller FIFOs with MAC compare unit and read-out (R) and write-in (W) finite state machines}\relax }}{2}}
\newlabel{flowcontroller}{{2}{2}}
\bibcite{bouchet}{1}
\bibcite{ug_temac}{2}
\@writefile{toc}{\contentsline {subsection}{\numberline {2.2}BRAM controller}{3}}
\@writefile{toc}{\contentsline {section}{\numberline {3}Conclusion}{3}}
