<?xml version="1.0" encoding="UTF-8" standalone="no"?>
<!-- Created with Inkscape (http://www.inkscape.org/) -->

<svg
   xmlns:dc="http://purl.org/dc/elements/1.1/"
   xmlns:cc="http://creativecommons.org/ns#"
   xmlns:rdf="http://www.w3.org/1999/02/22-rdf-syntax-ns#"
   xmlns:svg="http://www.w3.org/2000/svg"
   xmlns="http://www.w3.org/2000/svg"
   xmlns:xlink="http://www.w3.org/1999/xlink"
   xmlns:sodipodi="http://sodipodi.sourceforge.net/DTD/sodipodi-0.dtd"
   xmlns:inkscape="http://www.inkscape.org/namespaces/inkscape"
   width="101.00639mm"
   height="28.45396mm"
   viewBox="0 0 357.89664 100.82112"
   id="svg2"
   version="1.1"
   inkscape:version="0.91 r13725"
   sodipodi:docname="fso_link_2.svg">
  <defs
     id="defs4">
    <marker
       inkscape:stockid="Arrow1Send"
       orient="auto"
       refY="0"
       refX="0"
       id="marker4581"
       style="overflow:visible"
       inkscape:isstock="true">
      <path
         id="path4583"
         d="M 0,0 5,-5 -12.5,0 5,5 0,0 Z"
         style="fill:#0000ff;fill-opacity:1;fill-rule:evenodd;stroke:#0000ff;stroke-width:1pt;stroke-opacity:1"
         transform="matrix(-0.2,0,0,-0.2,-1.2,0)"
         inkscape:connector-curvature="0" />
    </marker>
    <marker
       inkscape:isstock="true"
       style="overflow:visible"
       id="marker4303"
       refX="0"
       refY="0"
       orient="auto"
       inkscape:stockid="Arrow1Send"
       inkscape:collect="always">
      <path
         inkscape:connector-curvature="0"
         transform="matrix(-0.2,0,0,-0.2,-1.2,0)"
         style="fill:#0000ff;fill-opacity:1;fill-rule:evenodd;stroke:#0000ff;stroke-width:1pt;stroke-opacity:1"
         d="M 0,0 5,-5 -12.5,0 5,5 0,0 Z"
         id="path4305" />
    </marker>
    <marker
       inkscape:isstock="true"
       style="overflow:visible"
       id="marker4854"
       refX="0"
       refY="0"
       orient="auto"
       inkscape:stockid="Arrow1Mend">
      <path
         inkscape:connector-curvature="0"
         transform="matrix(-0.4,0,0,-0.4,-4,0)"
         style="fill:#000000;fill-opacity:1;fill-rule:evenodd;stroke:#000000;stroke-width:1pt;stroke-opacity:1"
         d="M 0,0 5,-5 -12.5,0 5,5 0,0 Z"
         id="path4856" />
    </marker>
    <marker
       inkscape:stockid="Arrow1Send"
       orient="auto"
       refY="0"
       refX="0"
       id="marker4662"
       style="overflow:visible"
       inkscape:isstock="true">
      <path
         id="path4664"
         d="M 0,0 5,-5 -12.5,0 5,5 0,0 Z"
         style="fill:#000000;fill-opacity:1;fill-rule:evenodd;stroke:#000000;stroke-width:1pt;stroke-opacity:1"
         transform="matrix(-0.2,0,0,-0.2,-1.2,0)"
         inkscape:connector-curvature="0" />
    </marker>
    <marker
       inkscape:stockid="Arrow1Send"
       orient="auto"
       refY="0"
       refX="0"
       id="Arrow1Send"
       style="overflow:visible"
       inkscape:isstock="true"
       inkscape:collect="always">
      <path
         id="path4359"
         d="M 0,0 5,-5 -12.5,0 5,5 0,0 Z"
         style="fill:#0000ff;fill-opacity:1;fill-rule:evenodd;stroke:#0000ff;stroke-width:1pt;stroke-opacity:1"
         transform="matrix(-0.2,0,0,-0.2,-1.2,0)"
         inkscape:connector-curvature="0" />
    </marker>
    <linearGradient
       inkscape:collect="always"
       id="linearGradient4754">
      <stop
         style="stop-color:#0000ff;stop-opacity:1;"
         offset="0"
         id="stop4756" />
      <stop
         style="stop-color:#0000ff;stop-opacity:0.30000001"
         offset="1"
         id="stop4758" />
    </linearGradient>
    <marker
       inkscape:stockid="Arrow1Lstart"
       orient="auto"
       refY="0"
       refX="0"
       id="Arrow1Lstart"
       style="overflow:visible"
       inkscape:isstock="true">
      <path
         id="path4239"
         d="M 0,0 5,-5 -12.5,0 5,5 0,0 Z"
         style="fill:#000000;fill-opacity:1;fill-rule:evenodd;stroke:#000000;stroke-width:1pt;stroke-opacity:1"
         transform="matrix(0.8,0,0,0.8,10,0)"
         inkscape:connector-curvature="0" />
    </marker>
    <marker
       inkscape:stockid="Arrow2Lend"
       orient="auto"
       refY="0"
       refX="0"
       id="Arrow2Lend"
       style="overflow:visible"
       inkscape:isstock="true">
      <path
         id="path4260"
         style="fill:#000000;fill-opacity:1;fill-rule:evenodd;stroke:#000000;stroke-width:0.625;stroke-linejoin:round;stroke-opacity:1"
         d="M 8.7185878,4.0337352 -2.2072895,0.01601326 8.7185884,-4.0017078 c -1.7454984,2.3720609 -1.7354408,5.6174519 -6e-7,8.035443 z"
         transform="matrix(-1.1,0,0,-1.1,-1.1,0)"
         inkscape:connector-curvature="0" />
    </marker>
    <marker
       inkscape:stockid="Arrow1Mstart"
       orient="auto"
       refY="0"
       refX="0"
       id="Arrow1Mstart"
       style="overflow:visible"
       inkscape:isstock="true">
      <path
         id="path4245"
         d="M 0,0 5,-5 -12.5,0 5,5 0,0 Z"
         style="fill:#000000;fill-opacity:1;fill-rule:evenodd;stroke:#000000;stroke-width:1pt;stroke-opacity:1"
         transform="matrix(0.4,0,0,0.4,4,0)"
         inkscape:connector-curvature="0" />
    </marker>
    <marker
       inkscape:stockid="Arrow1Mend"
       orient="auto"
       refY="0"
       refX="0"
       id="Arrow1Mend"
       style="overflow:visible"
       inkscape:isstock="true">
      <path
         id="path4197"
         d="M 0,0 5,-5 -12.5,0 5,5 0,0 Z"
         style="fill:#0000ff;fill-opacity:1;fill-rule:evenodd;stroke:#0000ff;stroke-width:1pt;stroke-opacity:1"
         transform="matrix(-0.4,0,0,-0.4,-4,0)"
         inkscape:connector-curvature="0" />
    </marker>
    <marker
       inkscape:stockid="Arrow1Lend"
       orient="auto"
       refY="0"
       refX="0"
       id="Arrow1Lend"
       style="overflow:visible"
       inkscape:isstock="true">
      <path
         id="path4191"
         d="M 0,0 5,-5 -12.5,0 5,5 0,0 Z"
         style="fill:#0000ff;fill-opacity:1;fill-rule:evenodd;stroke:#0000ff;stroke-width:1pt;stroke-opacity:1"
         transform="matrix(-0.8,0,0,-0.8,-10,0)"
         inkscape:connector-curvature="0" />
    </marker>
    <linearGradient
       inkscape:collect="always"
       xlink:href="#linearGradient4754"
       id="linearGradient4760"
       x1="177.85715"
       y1="466.64792"
       x2="496.19571"
       y2="466.64792"
       gradientUnits="userSpaceOnUse"
       gradientTransform="matrix(0.57607852,0,0,0.57516178,266.01977,250.62903)" />
    <linearGradient
       inkscape:collect="always"
       xlink:href="#linearGradient4754"
       id="linearGradient4571"
       gradientUnits="userSpaceOnUse"
       gradientTransform="matrix(0.57527856,-0.03034868,0.03030038,0.57436309,252.02237,256.39681)"
       x1="177.85715"
       y1="466.64792"
       x2="496.19571"
       y2="466.64792" />
    <linearGradient
       inkscape:collect="always"
       xlink:href="#linearGradient4754"
       id="linearGradient4663"
       gradientUnits="userSpaceOnUse"
       gradientTransform="matrix(0.57527856,0.03034868,0.03030038,-0.57436309,252.02237,781.65735)"
       x1="177.85715"
       y1="466.64792"
       x2="496.19571"
       y2="466.64792" />
  </defs>
  <sodipodi:namedview
     id="base"
     pagecolor="#ffffff"
     bordercolor="#666666"
     borderopacity="1.0"
     inkscape:pageopacity="0.0"
     inkscape:pageshadow="2"
     inkscape:zoom="1.979899"
     inkscape:cx="153.98033"
     inkscape:cy="54.416837"
     inkscape:document-units="mm"
     inkscape:current-layer="layer1"
     showgrid="false"
     inkscape:snap-bbox="true"
     inkscape:bbox-paths="true"
     inkscape:bbox-nodes="true"
     inkscape:snap-bbox-edge-midpoints="true"
     inkscape:snap-bbox-midpoints="true"
     showguides="false"
     inkscape:window-width="1680"
     inkscape:window-height="1006"
     inkscape:window-x="0"
     inkscape:window-y="0"
     inkscape:window-maximized="1"
     inkscape:snap-global="false"
     fit-margin-top="0"
     fit-margin-left="0"
     fit-margin-right="0"
     fit-margin-bottom="0" />
  <metadata
     id="metadata7">
    <rdf:RDF>
      <cc:Work
         rdf:about="">
        <dc:format>image/svg+xml</dc:format>
        <dc:type
           rdf:resource="http://purl.org/dc/dcmitype/StillImage" />
        <dc:title></dc:title>
      </cc:Work>
    </rdf:RDF>
  </metadata>
  <g
     inkscape:label="Vrstva 1"
     inkscape:groupmode="layer"
     id="layer1"
     transform="translate(-281.16881,-485.19626)">
    <g
       id="g4176"
       transform="matrix(-0.57607852,0,0,0.57516176,653.17741,250.62901)"
       style="fill:#f5f5f5"
       inkscape:export-filename="/home/lookin/moje/skola/Thesis/presentation/img/fso"
       inkscape:export-xdpi="173.89999"
       inkscape:export-ydpi="173.89999">
      <path
         style="fill:#f5f5f5;fill-rule:evenodd;stroke:#000000;stroke-width:0.84732783px;stroke-linecap:butt;stroke-linejoin:miter;stroke-opacity:1"
         d="m 66.944882,440.0214 44.644198,0 83.98891,0 -39.34472,57.47317 -89.288388,0 z"
         id="path4178"
         inkscape:connector-curvature="0"
         sodipodi:nodetypes="cccccc" />
      <path
         style="fill:#f5f5f5;fill-rule:evenodd;stroke:#000000;stroke-width:0.42082497;stroke-linecap:butt;stroke-linejoin:miter;stroke-miterlimit:4;stroke-dasharray:none;stroke-opacity:1"
         d="m 156.06857,497.47278 0,-57.26302"
         id="path4180"
         inkscape:connector-curvature="0"
         sodipodi:nodetypes="cc" />
    </g>
    <g
       id="g4172"
       transform="matrix(0.57607852,0,0,0.57516176,266.01977,250.62901)"
       style="fill:#f5f5f5"
       inkscape:export-filename="/home/lookin/moje/skola/Thesis/presentation/img/fso"
       inkscape:export-xdpi="173.89999"
       inkscape:export-ydpi="173.89999">
      <path
         sodipodi:nodetypes="cccccc"
         inkscape:connector-curvature="0"
         id="rect3336"
         d="m 66.944882,440.0214 44.644198,0 83.98891,0 -39.34472,57.47317 -89.288388,0 z"
         style="fill:#f5f5f5;fill-rule:evenodd;stroke:#000000;stroke-width:0.84732783px;stroke-linecap:butt;stroke-linejoin:miter;stroke-opacity:1" />
      <path
         sodipodi:nodetypes="cc"
         inkscape:connector-curvature="0"
         id="path3370"
         d="m 156.06857,497.47278 0,-57.26302"
         style="fill:#f5f5f5;fill-rule:evenodd;stroke:#000000;stroke-width:0.42082497;stroke-linecap:butt;stroke-linejoin:miter;stroke-miterlimit:4;stroke-dasharray:none;stroke-opacity:1" />
    </g>
    <path
       style="fill:#0000ff;fill-rule:evenodd;stroke:url(#linearGradient4760);stroke-width:1.40699995;stroke-linecap:butt;stroke-linejoin:miter;stroke-miterlimit:4;stroke-dasharray:1.40699998, 1.40699998;stroke-dashoffset:0;stroke-opacity:1;marker-end:url(#Arrow1Send)"
       d="m 368.47944,519.02708 182.28771,0"
       id="path4182"
       inkscape:connector-curvature="0"
       inkscape:export-filename="/home/lookin/moje/skola/Thesis/presentation/img/fso"
       inkscape:export-xdpi="173.89999"
       inkscape:export-ydpi="173.89999" />
    <ellipse
       ry="1.2299668"
       rx="2.0532117"
       cy="517.55524"
       cx="403.79614"
       id="use5072"
       style="fill:#cccccc;stroke:#000000;stroke-width:0.68374228;stroke-miterlimit:4;stroke-dasharray:none"
       inkscape:export-filename="/home/lookin/moje/skola/Thesis/presentation/img/fso"
       inkscape:export-xdpi="173.89999"
       inkscape:export-ydpi="173.89999" />
    <ellipse
       ry="0.70202869"
       rx="1.1719127"
       cy="503.38135"
       cx="414.66504"
       id="use5074"
       style="fill:#cccccc;stroke:#000000;stroke-width:0.39025986;stroke-miterlimit:4;stroke-dasharray:none"
       inkscape:export-filename="/home/lookin/moje/skola/Thesis/presentation/img/fso"
       inkscape:export-xdpi="173.89999"
       inkscape:export-ydpi="173.89999" />
    <ellipse
       ry="0.6609869"
       rx="1.1034006"
       cy="494.71371"
       cx="409.32321"
       id="use5076"
       style="fill:#cccccc;stroke:#000000;stroke-width:0.36744463;stroke-miterlimit:4;stroke-dasharray:none"
       inkscape:export-filename="/home/lookin/moje/skola/Thesis/presentation/img/fso"
       inkscape:export-xdpi="173.89999"
       inkscape:export-ydpi="173.89999" />
    <ellipse
       ry="1.3908521"
       rx="2.3217812"
       cy="516.99792"
       cx="424.56451"
       id="use5078"
       style="fill:#cccccc;stroke:#000000;stroke-width:0.77317894;stroke-miterlimit:4;stroke-dasharray:none"
       inkscape:export-filename="/home/lookin/moje/skola/Thesis/presentation/img/fso"
       inkscape:export-xdpi="173.89999"
       inkscape:export-ydpi="173.89999" />
    <ellipse
       ry="1.1162281"
       rx="1.8633453"
       cy="526.56262"
       cx="417.52951"
       id="use5080"
       style="fill:#cccccc;stroke:#000000;stroke-width:0.62051463;stroke-miterlimit:4;stroke-dasharray:none"
       inkscape:export-filename="/home/lookin/moje/skola/Thesis/presentation/img/fso"
       inkscape:export-xdpi="173.89999"
       inkscape:export-ydpi="173.89999" />
    <ellipse
       ry="0.4843989"
       rx="0.80861831"
       cy="512.45416"
       cx="429.65707"
       id="use5082"
       style="fill:#cccccc;stroke:#000000;stroke-width:0.26927885;stroke-miterlimit:4;stroke-dasharray:none"
       inkscape:export-filename="/home/lookin/moje/skola/Thesis/presentation/img/fso"
       inkscape:export-xdpi="173.89999"
       inkscape:export-ydpi="173.89999" />
    <ellipse
       ry="0.38869524"
       rx="0.64885789"
       cy="501.71649"
       cx="431.60059"
       id="use5084"
       style="fill:#cccccc;stroke:#000000;stroke-width:0.21607687;stroke-miterlimit:4;stroke-dasharray:none"
       inkscape:export-filename="/home/lookin/moje/skola/Thesis/presentation/img/fso"
       inkscape:export-xdpi="173.89999"
       inkscape:export-ydpi="173.89999" />
    <ellipse
       ry="0.81345266"
       rx="1.3579154"
       cy="490.40137"
       cx="427.96686"
       id="use5086"
       style="fill:#cccccc;stroke:#000000;stroke-width:0.45220083;stroke-miterlimit:4;stroke-dasharray:none"
       inkscape:export-filename="/home/lookin/moje/skola/Thesis/presentation/img/fso"
       inkscape:export-xdpi="173.89999"
       inkscape:export-ydpi="173.89999" />
    <ellipse
       ry="0.68597209"
       rx="1.1451091"
       cy="507.43182"
       cx="456.62967"
       id="use5088"
       style="fill:#cccccc;stroke:#000000;stroke-width:0.38133398;stroke-miterlimit:4;stroke-dasharray:none"
       inkscape:export-filename="/home/lookin/moje/skola/Thesis/presentation/img/fso"
       inkscape:export-xdpi="173.89999"
       inkscape:export-ydpi="173.89999" />
    <ellipse
       ry="0.52141058"
       rx="0.87040263"
       cy="493.53317"
       cx="441.82678"
       id="use5090"
       style="fill:#cccccc;stroke:#000000;stroke-width:0.28985372;stroke-miterlimit:4;stroke-dasharray:none"
       inkscape:export-filename="/home/lookin/moje/skola/Thesis/presentation/img/fso"
       inkscape:export-xdpi="173.89999"
       inkscape:export-ydpi="173.89999" />
    <ellipse
       ry="1.1295029"
       rx="1.8855056"
       cy="512.12921"
       cx="462.87827"
       id="use5092"
       style="fill:#cccccc;stroke:#000000;stroke-width:0.62789416;stroke-miterlimit:4;stroke-dasharray:none"
       inkscape:export-filename="/home/lookin/moje/skola/Thesis/presentation/img/fso"
       inkscape:export-xdpi="173.89999"
       inkscape:export-ydpi="173.89999" />
    <ellipse
       ry="0.55887085"
       rx="0.93293595"
       cy="506.31537"
       cx="454.26245"
       id="use5094"
       style="fill:#cccccc;stroke:#000000;stroke-width:0.31067798;stroke-miterlimit:4;stroke-dasharray:none"
       inkscape:export-filename="/home/lookin/moje/skola/Thesis/presentation/img/fso"
       inkscape:export-xdpi="173.89999"
       inkscape:export-ydpi="173.89999" />
    <ellipse
       ry="1.116833"
       rx="1.8643548"
       cy="506.18219"
       cx="440.52829"
       id="use5096"
       style="fill:#cccccc;stroke:#000000;stroke-width:0.62085086;stroke-miterlimit:4;stroke-dasharray:none"
       inkscape:export-filename="/home/lookin/moje/skola/Thesis/presentation/img/fso"
       inkscape:export-xdpi="173.89999"
       inkscape:export-ydpi="173.89999" />
    <ellipse
       ry="0.7491774"
       rx="1.2506191"
       cy="521.52606"
       cx="455.42294"
       id="use5098"
       style="fill:#cccccc;stroke:#000000;stroke-width:0.41646999;stroke-miterlimit:4;stroke-dasharray:none"
       inkscape:export-filename="/home/lookin/moje/skola/Thesis/presentation/img/fso"
       inkscape:export-xdpi="173.89999"
       inkscape:export-ydpi="173.89999" />
    <ellipse
       ry="1.3038899"
       rx="2.1766136"
       cy="522.36285"
       cx="480.41678"
       id="use5100"
       style="fill:#cccccc;stroke:#000000;stroke-width:0.72483641;stroke-miterlimit:4;stroke-dasharray:none"
       inkscape:export-filename="/home/lookin/moje/skola/Thesis/presentation/img/fso"
       inkscape:export-xdpi="173.89999"
       inkscape:export-ydpi="173.89999" />
    <ellipse
       ry="0.75215977"
       rx="1.2555976"
       cy="506.25571"
       cx="467.43686"
       id="use5102"
       style="fill:#cccccc;stroke:#000000;stroke-width:0.41812792;stroke-miterlimit:4;stroke-dasharray:none"
       inkscape:export-filename="/home/lookin/moje/skola/Thesis/presentation/img/fso"
       inkscape:export-xdpi="173.89999"
       inkscape:export-ydpi="173.89999" />
    <ellipse
       ry="0.66487038"
       rx="1.1098834"
       cy="501.09506"
       cx="487.31201"
       id="use5106"
       style="fill:#cccccc;stroke:#000000;stroke-width:0.36960346;stroke-miterlimit:4;stroke-dasharray:none"
       inkscape:export-filename="/home/lookin/moje/skola/Thesis/presentation/img/fso"
       inkscape:export-xdpi="173.89999"
       inkscape:export-ydpi="173.89999" />
    <ellipse
       ry="1.2221851"
       rx="2.0402219"
       cy="516.44287"
       cx="482.56992"
       id="use5108"
       style="fill:#cccccc;stroke:#000000;stroke-width:0.67941654;stroke-miterlimit:4;stroke-dasharray:none"
       inkscape:export-filename="/home/lookin/moje/skola/Thesis/presentation/img/fso"
       inkscape:export-xdpi="173.89999"
       inkscape:export-ydpi="173.89999" />
    <ellipse
       ry="1.0906501"
       rx="1.8206471"
       cy="524.88232"
       cx="486.30121"
       id="use5110"
       style="fill:#cccccc;stroke:#000000;stroke-width:0.6062957;stroke-miterlimit:4;stroke-dasharray:none"
       inkscape:export-filename="/home/lookin/moje/skola/Thesis/presentation/img/fso"
       inkscape:export-xdpi="173.89999"
       inkscape:export-ydpi="173.89999" />
    <ellipse
       ry="0.52367532"
       rx="0.8741833"
       cy="524.02643"
       cx="491.8053"
       id="use5112"
       style="fill:#cccccc;stroke:#000000;stroke-width:0.29111272;stroke-miterlimit:4;stroke-dasharray:none"
       inkscape:export-filename="/home/lookin/moje/skola/Thesis/presentation/img/fso"
       inkscape:export-xdpi="173.89999"
       inkscape:export-ydpi="173.89999" />
    <ellipse
       ry="1.2797327"
       rx="2.1362872"
       cy="527.974"
       cx="497.42776"
       id="use5114"
       style="fill:#cccccc;stroke:#000000;stroke-width:0.7114073;stroke-miterlimit:4;stroke-dasharray:none"
       inkscape:export-filename="/home/lookin/moje/skola/Thesis/presentation/img/fso"
       inkscape:export-xdpi="173.89999"
       inkscape:export-ydpi="173.89999" />
    <ellipse
       ry="0.5008226"
       rx="0.83603489"
       cy="526.18109"
       cx="513.18951"
       id="use5116"
       style="fill:#cccccc;stroke:#000000;stroke-width:0.27840886;stroke-miterlimit:4;stroke-dasharray:none"
       inkscape:export-filename="/home/lookin/moje/skola/Thesis/presentation/img/fso"
       inkscape:export-xdpi="173.89999"
       inkscape:export-ydpi="173.89999" />
    <ellipse
       ry="0.4823038"
       rx="0.80512089"
       cy="519.27679"
       cx="520.0495"
       id="use5118"
       style="fill:#cccccc;stroke:#000000;stroke-width:0.26811418;stroke-miterlimit:4;stroke-dasharray:none"
       inkscape:export-filename="/home/lookin/moje/skola/Thesis/presentation/img/fso"
       inkscape:export-xdpi="173.89999"
       inkscape:export-ydpi="173.89999" />
    <ellipse
       ry="0.89457047"
       rx="1.493327"
       cy="511.92865"
       cx="507.88538"
       id="use5122"
       style="fill:#cccccc;stroke:#000000;stroke-width:0.49729452;stroke-miterlimit:4;stroke-dasharray:none"
       inkscape:export-filename="/home/lookin/moje/skola/Thesis/presentation/img/fso"
       inkscape:export-xdpi="173.89999"
       inkscape:export-ydpi="173.89999" />
    <ellipse
       ry="0.63370144"
       rx="1.0578525"
       cy="510.44266"
       cx="529.61011"
       id="use5124"
       style="fill:#cccccc;stroke:#000000;stroke-width:0.35227659;stroke-miterlimit:4;stroke-dasharray:none"
       inkscape:export-filename="/home/lookin/moje/skola/Thesis/presentation/img/fso"
       inkscape:export-xdpi="173.89999"
       inkscape:export-ydpi="173.89999" />
    <ellipse
       ry="0.56767946"
       rx="0.94764042"
       cy="512.40607"
       cx="505.62378"
       id="use5126"
       style="fill:#cccccc;stroke:#000000;stroke-width:0.31557477;stroke-miterlimit:4;stroke-dasharray:none"
       inkscape:export-filename="/home/lookin/moje/skola/Thesis/presentation/img/fso"
       inkscape:export-xdpi="173.89999"
       inkscape:export-ydpi="173.89999" />
    <ellipse
       ry="0.45131579"
       rx="0.75339186"
       cy="529.2251"
       cx="514.61353"
       id="use5128"
       style="fill:#cccccc;stroke:#000000;stroke-width:0.25088784;stroke-miterlimit:4;stroke-dasharray:none"
       inkscape:export-filename="/home/lookin/moje/skola/Thesis/presentation/img/fso"
       inkscape:export-xdpi="173.89999"
       inkscape:export-ydpi="173.89999" />
    <ellipse
       ry="0.81264228"
       rx="1.3565627"
       cy="533.95587"
       cx="505.08566"
       id="use5130"
       style="fill:#cccccc;stroke:#000000;stroke-width:0.45175034;stroke-miterlimit:4;stroke-dasharray:none"
       inkscape:export-filename="/home/lookin/moje/skola/Thesis/presentation/img/fso"
       inkscape:export-xdpi="173.89999"
       inkscape:export-ydpi="173.89999" />
    <ellipse
       ry="1.0180159"
       rx="1.6993974"
       cy="539.23962"
       cx="506.61841"
       id="use5132"
       style="fill:#cccccc;stroke:#000000;stroke-width:0.56591815;stroke-miterlimit:4;stroke-dasharray:none"
       inkscape:export-filename="/home/lookin/moje/skola/Thesis/presentation/img/fso"
       inkscape:export-xdpi="173.89999"
       inkscape:export-ydpi="173.89999" />
    <ellipse
       ry="0.92895925"
       rx="1.5507331"
       cy="533.4281"
       cx="482.40967"
       id="use5134"
       style="fill:#cccccc;stroke:#000000;stroke-width:0.5164113;stroke-miterlimit:4;stroke-dasharray:none"
       inkscape:export-filename="/home/lookin/moje/skola/Thesis/presentation/img/fso"
       inkscape:export-xdpi="173.89999"
       inkscape:export-ydpi="173.89999" />
    <ellipse
       ry="1.4163811"
       rx="2.3643975"
       cy="544.57678"
       cx="472.5614"
       id="use5136"
       style="fill:#cccccc;stroke:#000000;stroke-width:0.7873705;stroke-miterlimit:4;stroke-dasharray:none"
       inkscape:export-filename="/home/lookin/moje/skola/Thesis/presentation/img/fso"
       inkscape:export-xdpi="173.89999"
       inkscape:export-ydpi="173.89999" />
    <ellipse
       ry="0.32285371"
       rx="0.53894717"
       cy="533.32269"
       cx="499.35754"
       id="use5138"
       style="fill:#cccccc;stroke:#000000;stroke-width:0.17947537;stroke-miterlimit:4;stroke-dasharray:none"
       inkscape:export-filename="/home/lookin/moje/skola/Thesis/presentation/img/fso"
       inkscape:export-xdpi="173.89999"
       inkscape:export-ydpi="173.89999" />
    <ellipse
       ry="1.2746657"
       rx="2.1278288"
       cy="544.77356"
       cx="501.63306"
       id="use5140"
       style="fill:#cccccc;stroke:#000000;stroke-width:0.70859051;stroke-miterlimit:4;stroke-dasharray:none"
       inkscape:export-filename="/home/lookin/moje/skola/Thesis/presentation/img/fso"
       inkscape:export-xdpi="173.89999"
       inkscape:export-ydpi="173.89999" />
    <ellipse
       ry="0.3122088"
       rx="0.52117741"
       cy="542.1319"
       cx="471.41177"
       id="use5142"
       style="fill:#cccccc;stroke:#000000;stroke-width:0.17355783;stroke-miterlimit:4;stroke-dasharray:none"
       inkscape:export-filename="/home/lookin/moje/skola/Thesis/presentation/img/fso"
       inkscape:export-xdpi="173.89999"
       inkscape:export-ydpi="173.89999" />
    <ellipse
       ry="0.67642879"
       rx="1.129178"
       cy="531.91766"
       cx="468.75024"
       id="use5144"
       style="fill:#cccccc;stroke:#000000;stroke-width:0.37602881;stroke-miterlimit:4;stroke-dasharray:none"
       inkscape:export-filename="/home/lookin/moje/skola/Thesis/presentation/img/fso"
       inkscape:export-xdpi="173.89999"
       inkscape:export-ydpi="173.89999" />
    <ellipse
       ry="0.51615834"
       rx="0.86163497"
       cy="533.79578"
       cx="450.81351"
       id="use5146"
       style="fill:#cccccc;stroke:#000000;stroke-width:0.28693399;stroke-miterlimit:4;stroke-dasharray:none"
       inkscape:export-filename="/home/lookin/moje/skola/Thesis/presentation/img/fso"
       inkscape:export-xdpi="173.89999"
       inkscape:export-ydpi="173.89999" />
    <ellipse
       ry="0.62194997"
       rx="1.0382353"
       cy="547.71954"
       cx="477.49164"
       id="use5148"
       style="fill:#cccccc;stroke:#000000;stroke-width:0.34574386;stroke-miterlimit:4;stroke-dasharray:none"
       inkscape:export-filename="/home/lookin/moje/skola/Thesis/presentation/img/fso"
       inkscape:export-xdpi="173.89999"
       inkscape:export-ydpi="173.89999" />
    <ellipse
       ry="0.79343998"
       rx="1.324508"
       cy="544.88782"
       cx="452.2149"
       id="use5150"
       style="fill:#cccccc;stroke:#000000;stroke-width:0.44107571;stroke-miterlimit:4;stroke-dasharray:none"
       inkscape:export-filename="/home/lookin/moje/skola/Thesis/presentation/img/fso"
       inkscape:export-xdpi="173.89999"
       inkscape:export-ydpi="173.89999" />
    <ellipse
       ry="0.47456643"
       rx="0.79220462"
       cy="541.53894"
       cx="454.02969"
       id="use5152"
       style="fill:#cccccc;stroke:#000000;stroke-width:0.26381293;stroke-miterlimit:4;stroke-dasharray:none"
       inkscape:export-filename="/home/lookin/moje/skola/Thesis/presentation/img/fso"
       inkscape:export-xdpi="173.89999"
       inkscape:export-ydpi="173.89999" />
    <ellipse
       ry="1.4287647"
       rx="2.3850698"
       cy="529.41089"
       cx="440.91254"
       id="use5154"
       style="fill:#cccccc;stroke:#000000;stroke-width:0.79425472;stroke-miterlimit:4;stroke-dasharray:none"
       inkscape:export-filename="/home/lookin/moje/skola/Thesis/presentation/img/fso"
       inkscape:export-xdpi="173.89999"
       inkscape:export-ydpi="173.89999" />
    <ellipse
       ry="0.47114518"
       rx="0.78649348"
       cy="560.09009"
       cx="428.60934"
       id="use5156"
       style="fill:#cccccc;stroke:#000000;stroke-width:0.26191106;stroke-miterlimit:4;stroke-dasharray:none"
       inkscape:export-filename="/home/lookin/moje/skola/Thesis/presentation/img/fso"
       inkscape:export-xdpi="173.89999"
       inkscape:export-ydpi="173.89999" />
    <ellipse
       ry="0.32335439"
       rx="0.539783"
       cy="494.59912"
       cx="458.7869"
       id="use5158"
       style="fill:#cccccc;stroke:#000000;stroke-width:0.17975374;stroke-miterlimit:4;stroke-dasharray:none"
       inkscape:export-filename="/home/lookin/moje/skola/Thesis/presentation/img/fso"
       inkscape:export-xdpi="173.89999"
       inkscape:export-ydpi="173.89999" />
    <ellipse
       ry="1.3259162"
       rx="2.2133825"
       cy="486.89072"
       cx="479.37921"
       id="use5162"
       style="fill:#cccccc;stroke:#000000;stroke-width:0.73708081;stroke-miterlimit:4;stroke-dasharray:none"
       inkscape:export-filename="/home/lookin/moje/skola/Thesis/presentation/img/fso"
       inkscape:export-xdpi="173.89999"
       inkscape:export-ydpi="173.89999" />
    <ellipse
       ry="0.96644872"
       rx="1.6133151"
       cy="495.04755"
       cx="458.84375"
       id="use5164"
       style="fill:#cccccc;stroke:#000000;stroke-width:0.53725177;stroke-miterlimit:4;stroke-dasharray:none"
       inkscape:export-filename="/home/lookin/moje/skola/Thesis/presentation/img/fso"
       inkscape:export-xdpi="173.89999"
       inkscape:export-ydpi="173.89999" />
    <ellipse
       ry="1.3288089"
       rx="2.2182119"
       cy="487.97736"
       cx="452.25443"
       id="use5166"
       style="fill:#cccccc;stroke:#000000;stroke-width:0.73868912;stroke-miterlimit:4;stroke-dasharray:none"
       inkscape:export-filename="/home/lookin/moje/skola/Thesis/presentation/img/fso"
       inkscape:export-xdpi="173.89999"
       inkscape:export-ydpi="173.89999" />
    <ellipse
       ry="0.74443543"
       rx="1.2427032"
       cy="549.4881"
       cx="478.19467"
       id="use5168"
       style="fill:#cccccc;stroke:#000000;stroke-width:0.41383392;stroke-miterlimit:4;stroke-dasharray:none"
       inkscape:export-filename="/home/lookin/moje/skola/Thesis/presentation/img/fso"
       inkscape:export-xdpi="173.89999"
       inkscape:export-ydpi="173.89999" />
    <ellipse
       ry="0.73029548"
       rx="1.2190992"
       cy="561.10651"
       cx="466.31631"
       id="use5170"
       style="fill:#cccccc;stroke:#000000;stroke-width:0.40597352;stroke-miterlimit:4;stroke-dasharray:none"
       inkscape:export-filename="/home/lookin/moje/skola/Thesis/presentation/img/fso"
       inkscape:export-xdpi="173.89999"
       inkscape:export-ydpi="173.89999" />
    <ellipse
       ry="0.87178373"
       rx="1.455289"
       cy="569.17505"
       cx="465.04523"
       id="use5172"
       style="fill:#cccccc;stroke:#000000;stroke-width:0.48462725;stroke-miterlimit:4;stroke-dasharray:none"
       inkscape:export-filename="/home/lookin/moje/skola/Thesis/presentation/img/fso"
       inkscape:export-xdpi="173.89999"
       inkscape:export-ydpi="173.89999" />
    <ellipse
       ry="1.4136543"
       rx="2.3598456"
       cy="549.31921"
       cx="454.44397"
       id="use5174"
       style="fill:#cccccc;stroke:#000000;stroke-width:0.78585476;stroke-miterlimit:4;stroke-dasharray:none"
       inkscape:export-filename="/home/lookin/moje/skola/Thesis/presentation/img/fso"
       inkscape:export-xdpi="173.89999"
       inkscape:export-ydpi="173.89999" />
    <text
       sodipodi:linespacing="125%"
       id="text5300"
       y="488.37863"
       x="142.30687"
       style="font-style:normal;font-weight:normal;font-size:22.42001343px;line-height:125%;font-family:sans-serif;letter-spacing:0px;word-spacing:0px;fill:#000000;fill-opacity:1;stroke:none;stroke-width:1px;stroke-linecap:butt;stroke-linejoin:miter;stroke-opacity:1"
       xml:space="preserve"><tspan
         style="font-size:12.61125755px"
         y="0"
         x="0"
         id="tspan5302"
         sodipodi:role="line"><tspan
           style="font-size:8.19731808px;baseline-shift:sub"
           id="tspan5306" /></tspan></text>
    <path
       inkscape:connector-curvature="0"
       id="path4301"
       d="m 368.47937,519.02442 182.03458,-9.60319"
       style="fill:#0000ff;fill-rule:evenodd;stroke:url(#linearGradient4571);stroke-width:1.40699995;stroke-linecap:butt;stroke-linejoin:miter;stroke-miterlimit:4;stroke-dasharray:1.40699998, 1.40699997999999993;stroke-dashoffset:0;stroke-opacity:1;marker-end:url(#marker4303);opacity:0.497"
       inkscape:transform-center-x="-91.067675"
       inkscape:transform-center-y="-4.804255"
       inkscape:export-filename="/home/lookin/moje/skola/Thesis/presentation/img/fso"
       inkscape:export-xdpi="173.89999"
       inkscape:export-ydpi="173.89999" />
    <path
       inkscape:transform-center-y="4.804255"
       inkscape:transform-center-x="-91.067675"
       style="fill:#0000ff;fill-rule:evenodd;stroke:url(#linearGradient4663);stroke-width:1.40699995;stroke-linecap:butt;stroke-linejoin:miter;stroke-miterlimit:4;stroke-dasharray:1.40699998, 1.40699997999999993;stroke-dashoffset:0;stroke-opacity:1;marker-end:url(#marker4581);opacity:0.63"
       d="m 368.47937,519.02974 182.03458,9.60319"
       id="path4579"
       inkscape:connector-curvature="0"
       inkscape:export-filename="/home/lookin/moje/skola/Thesis/presentation/img/fso"
       inkscape:export-xdpi="173.89999"
       inkscape:export-ydpi="173.89999" />
  </g>
</svg>
