<?xml version="1.0" encoding="UTF-8" standalone="no"?>
<!-- Created with Inkscape (http://www.inkscape.org/) -->

<svg
   xmlns:dc="http://purl.org/dc/elements/1.1/"
   xmlns:cc="http://creativecommons.org/ns#"
   xmlns:rdf="http://www.w3.org/1999/02/22-rdf-syntax-ns#"
   xmlns:svg="http://www.w3.org/2000/svg"
   xmlns="http://www.w3.org/2000/svg"
   xmlns:sodipodi="http://sodipodi.sourceforge.net/DTD/sodipodi-0.dtd"
   xmlns:inkscape="http://www.inkscape.org/namespaces/inkscape"
   width="87.580956mm"
   height="66.245277mm"
   viewBox="0 0 310.32622 234.72736"
   id="svg31923"
   version="1.1"
   inkscape:version="0.91 r13725"
   sodipodi:docname="mie_scattering.svg">
  <defs
     id="defs31925" />
  <sodipodi:namedview
     id="base"
     pagecolor="#ffffff"
     bordercolor="#666666"
     borderopacity="1.0"
     inkscape:pageopacity="0.0"
     inkscape:pageshadow="2"
     inkscape:zoom="1.979899"
     inkscape:cx="93.003981"
     inkscape:cy="89.113444"
     inkscape:document-units="px"
     inkscape:current-layer="layer1"
     showgrid="false"
     fit-margin-top="0"
     fit-margin-left="0"
     fit-margin-right="0"
     fit-margin-bottom="0"
     inkscape:window-width="1680"
     inkscape:window-height="1006"
     inkscape:window-x="0"
     inkscape:window-y="0"
     inkscape:window-maximized="1" />
  <metadata
     id="metadata31928">
    <rdf:RDF>
      <cc:Work
         rdf:about="">
        <dc:format>image/svg+xml</dc:format>
        <dc:type
           rdf:resource="http://purl.org/dc/dcmitype/StillImage" />
        <dc:title></dc:title>
      </cc:Work>
    </rdf:RDF>
  </metadata>
  <g
     inkscape:label="Vrstva 1"
     inkscape:groupmode="layer"
     id="layer1"
     transform="translate(-160.49425,-306.01263)">
    <path
       d="m 194.27039,508.98453 273.6097,0 0,-198.7007 -273.6097,0 0,198.7007 z"
       style="fill:#ffffff;fill-opacity:1;fill-rule:nonzero;stroke:none"
       id="path4609"
       inkscape:connector-curvature="0" />
    <g
       id="g4611"
       transform="matrix(1.3902932,0,0,-1.3902932,194.27039,508.98453)">
      <path
         d="m 0,0 0,142.92 196.8,0 L 196.8,0 0,0"
         style="fill:none;stroke:#ffffff;stroke-width:0.10789091;stroke-linecap:butt;stroke-linejoin:miter;stroke-miterlimit:10;stroke-dasharray:none;stroke-opacity:1"
         id="path4613"
         inkscape:connector-curvature="0" />
    </g>
    <g
       id="g4615"
       transform="matrix(1.3902932,0,0,-1.3902932,194.27039,310.28383)">
      <path
         d="M 0,0 196.8,0"
         style="fill:none;stroke:#000000;stroke-width:0.10789091;stroke-linecap:butt;stroke-linejoin:miter;stroke-miterlimit:10;stroke-dasharray:none;stroke-opacity:1"
         id="path4617"
         inkscape:connector-curvature="0" />
    </g>
    <path
       d="m 467.88009,310.45066 0.16678,0 0,-0.16683 -0.16678,0 0,0.16683 z"
       style="fill:#000000;fill-opacity:1;fill-rule:nonzero;stroke:none"
       id="path4619"
       inkscape:connector-curvature="0" />
    <g
       id="g4621"
       transform="matrix(1.3902932,0,0,-1.3902932,194.27039,508.98453)">
      <path
         d="M 0,0 196.8,0"
         style="fill:none;stroke:#000000;stroke-width:0.10789091;stroke-linecap:butt;stroke-linejoin:miter;stroke-miterlimit:10;stroke-dasharray:none;stroke-opacity:1"
         id="path4623"
         inkscape:connector-curvature="0" />
    </g>
    <path
       d="m 467.88009,509.15136 0.16678,0 0,-0.16683 -0.16678,0 0,0.16683 z"
       style="fill:#000000;fill-opacity:1;fill-rule:nonzero;stroke:none"
       id="path4625"
       inkscape:connector-curvature="0" />
    <g
       id="g4627"
       transform="matrix(1.3902932,0,0,-1.3902932,467.88009,508.98453)">
      <path
         d="M 0,0 0,142.92"
         style="fill:none;stroke:#000000;stroke-width:0.10789091;stroke-linecap:butt;stroke-linejoin:miter;stroke-miterlimit:10;stroke-dasharray:none;stroke-opacity:1"
         id="path4629"
         inkscape:connector-curvature="0" />
    </g>
    <path
       d="m 467.88009,310.45066 0.16678,0 0,-0.16683 -0.16678,0 0,0.16683 z"
       style="fill:#000000;fill-opacity:1;fill-rule:nonzero;stroke:none"
       id="path4631"
       inkscape:connector-curvature="0" />
    <g
       id="g4633"
       transform="matrix(1.3902932,0,0,-1.3902932,194.27039,508.98453)">
      <path
         d="M 0,0 0,142.92"
         style="fill:none;stroke:#000000;stroke-width:0.10789091;stroke-linecap:butt;stroke-linejoin:miter;stroke-miterlimit:10;stroke-dasharray:none;stroke-opacity:1"
         id="path4635"
         inkscape:connector-curvature="0" />
    </g>
    <path
       d="m 194.27039,310.45066 0.16683,0 0,-0.16683 -0.16683,0 0,0.16683 z"
       style="fill:#000000;fill-opacity:1;fill-rule:nonzero;stroke:none"
       id="path4637"
       inkscape:connector-curvature="0" />
    <g
       id="g4639"
       transform="matrix(1.3902932,0,0,-1.3902932,194.27039,508.98453)">
      <path
         d="M 0,0 196.8,0"
         style="fill:none;stroke:#000000;stroke-width:0.10789091;stroke-linecap:butt;stroke-linejoin:miter;stroke-miterlimit:10;stroke-dasharray:none;stroke-opacity:1"
         id="path4641"
         inkscape:connector-curvature="0" />
    </g>
    <path
       d="m 467.88009,509.15136 0.16678,0 0,-0.16683 -0.16678,0 0,0.16683 z"
       style="fill:#000000;fill-opacity:1;fill-rule:nonzero;stroke:none"
       id="path4643"
       inkscape:connector-curvature="0" />
    <g
       id="g4645"
       transform="matrix(1.3902932,0,0,-1.3902932,194.27039,508.98453)">
      <path
         d="M 0,0 0,142.92"
         style="fill:none;stroke:#000000;stroke-width:0.10789091;stroke-linecap:butt;stroke-linejoin:miter;stroke-miterlimit:10;stroke-dasharray:none;stroke-opacity:1"
         id="path4647"
         inkscape:connector-curvature="0" />
    </g>
    <path
       d="m 194.27039,310.45066 0.16683,0 0,-0.16683 -0.16683,0 0,0.16683 z"
       style="fill:#000000;fill-opacity:1;fill-rule:nonzero;stroke:none"
       id="path4649"
       inkscape:connector-curvature="0" />
    <g
       id="g4651"
       transform="matrix(1.3902932,0,0,-1.3902932,212.28859,508.98453)">
      <path
         d="M 0,0 0,2.28"
         style="fill:none;stroke:#000000;stroke-width:0.10789091;stroke-linecap:butt;stroke-linejoin:miter;stroke-miterlimit:10;stroke-dasharray:none;stroke-opacity:1"
         id="path4653"
         inkscape:connector-curvature="0" />
    </g>
    <path
       d="m 212.45542,506.14833 0.16684,0 0,-0.16683 -0.16684,0 0,0.16683 z"
       style="fill:#000000;fill-opacity:1;fill-rule:nonzero;stroke:none"
       id="path4655"
       inkscape:connector-curvature="0" />
    <g
       id="g4657"
       transform="matrix(1.3902932,0,0,-1.3902932,212.28859,310.28383)">
      <path
         d="M 0,0 0,-1.68"
         style="fill:none;stroke:#000000;stroke-width:0.10789091;stroke-linecap:butt;stroke-linejoin:miter;stroke-miterlimit:10;stroke-dasharray:none;stroke-opacity:1"
         id="path4659"
         inkscape:connector-curvature="0" />
    </g>
    <path
       d="m 212.45542,312.95319 0.16684,0 0,-0.16691 -0.16684,0 0,0.16691 z"
       style="fill:#000000;fill-opacity:1;fill-rule:nonzero;stroke:none"
       id="path4661"
       inkscape:connector-curvature="0" />
    <text
       transform="scale(0.95727719,1.0446295)"
       style="font-variant:normal;font-weight:normal;font-size:9.81216335px;font-family:Helvetica;-inkscape-font-specification:Helvetica;writing-mode:lr-tb;fill:#000000;fill-opacity:1;fill-rule:nonzero;stroke:none"
       id="text4663"
       x="215.14024"
       y="498.73819">
      <tspan
         x="215.14024 220.36816 223.50511"
         y="498.73819"
         sodipodi:role="line"
         id="tspan4665">0.1</tspan>
    </text>
    <g
       id="g4667"
       transform="matrix(1.3902932,0,0,-1.3902932,240.65057,508.98453)">
      <path
         d="M 0,0 0,2.28"
         style="fill:none;stroke:#000000;stroke-width:0.10789091;stroke-linecap:butt;stroke-linejoin:miter;stroke-miterlimit:10;stroke-dasharray:none;stroke-opacity:1"
         id="path4669"
         inkscape:connector-curvature="0" />
    </g>
    <path
       d="m 240.65057,506.14833 0.16683,0 0,-0.16683 -0.16683,0 0,0.16683 z"
       style="fill:#000000;fill-opacity:1;fill-rule:nonzero;stroke:none"
       id="path4671"
       inkscape:connector-curvature="0" />
    <g
       id="g4673"
       transform="matrix(1.3902932,0,0,-1.3902932,240.65057,310.28383)">
      <path
         d="M 0,0 0,-1.68"
         style="fill:none;stroke:#000000;stroke-width:0.10789091;stroke-linecap:butt;stroke-linejoin:miter;stroke-miterlimit:10;stroke-dasharray:none;stroke-opacity:1"
         id="path4675"
         inkscape:connector-curvature="0" />
    </g>
    <path
       d="m 240.65057,312.95319 0.16683,0 0,-0.16691 -0.16683,0 0,0.16691 z"
       style="fill:#000000;fill-opacity:1;fill-rule:nonzero;stroke:none"
       id="path4677"
       inkscape:connector-curvature="0" />
    <text
       transform="scale(0.95727719,1.0446295)"
       style="font-variant:normal;font-weight:normal;font-size:9.81216335px;font-family:Helvetica;-inkscape-font-specification:Helvetica;writing-mode:lr-tb;fill:#000000;fill-opacity:1;fill-rule:nonzero;stroke:none"
       id="text4679"
       x="244.59372"
       y="498.73819">
      <tspan
         x="244.59372 249.82164 252.95859"
         y="498.73819"
         sodipodi:role="line"
         id="tspan4681">0.2</tspan>
    </text>
    <g
       id="g4683"
       transform="matrix(1.3902932,0,0,-1.3902932,268.8457,508.98453)">
      <path
         d="M 0,0 0,2.28"
         style="fill:none;stroke:#000000;stroke-width:0.10789091;stroke-linecap:butt;stroke-linejoin:miter;stroke-miterlimit:10;stroke-dasharray:none;stroke-opacity:1"
         id="path4685"
         inkscape:connector-curvature="0" />
    </g>
    <path
       d="m 268.8457,506.14833 0.16685,0 0,-0.16683 -0.16685,0 0,0.16683 z"
       style="fill:#000000;fill-opacity:1;fill-rule:nonzero;stroke:none"
       id="path4687"
       inkscape:connector-curvature="0" />
    <g
       id="g4689"
       transform="matrix(1.3902932,0,0,-1.3902932,268.8457,310.28383)">
      <path
         d="M 0,0 0,-1.68"
         style="fill:none;stroke:#000000;stroke-width:0.10789091;stroke-linecap:butt;stroke-linejoin:miter;stroke-miterlimit:10;stroke-dasharray:none;stroke-opacity:1"
         id="path4691"
         inkscape:connector-curvature="0" />
    </g>
    <path
       d="m 268.8457,312.95319 0.16685,0 0,-0.16691 -0.16685,0 0,0.16691 z"
       style="fill:#000000;fill-opacity:1;fill-rule:nonzero;stroke:none"
       id="path4693"
       inkscape:connector-curvature="0" />
    <text
       transform="scale(0.95727719,1.0446295)"
       style="font-variant:normal;font-weight:normal;font-size:9.81216335px;font-family:Helvetica;-inkscape-font-specification:Helvetica;writing-mode:lr-tb;fill:#000000;fill-opacity:1;fill-rule:nonzero;stroke:none"
       id="text4695"
       x="274.04718"
       y="498.73819">
      <tspan
         x="274.04718 279.4498 282.41208"
         y="498.73819"
         sodipodi:role="line"
         id="tspan4697">0.3</tspan>
    </text>
    <g
       id="g4699"
       transform="matrix(1.3902932,0,0,-1.3902932,297.04086,508.98453)">
      <path
         d="M 0,0 0,2.28"
         style="fill:none;stroke:#000000;stroke-width:0.10789091;stroke-linecap:butt;stroke-linejoin:miter;stroke-miterlimit:10;stroke-dasharray:none;stroke-opacity:1"
         id="path4701"
         inkscape:connector-curvature="0" />
    </g>
    <path
       d="m 297.04086,506.14833 0.16688,0 0,-0.16683 -0.16688,0 0,0.16683 z"
       style="fill:#000000;fill-opacity:1;fill-rule:nonzero;stroke:none"
       id="path4703"
       inkscape:connector-curvature="0" />
    <g
       id="g4705"
       transform="matrix(1.3902932,0,0,-1.3902932,297.04086,310.28383)">
      <path
         d="M 0,0 0,-1.68"
         style="fill:none;stroke:#000000;stroke-width:0.10789091;stroke-linecap:butt;stroke-linejoin:miter;stroke-miterlimit:10;stroke-dasharray:none;stroke-opacity:1"
         id="path4707"
         inkscape:connector-curvature="0" />
    </g>
    <path
       d="m 297.04086,312.95319 0.16688,0 0,-0.16691 -0.16688,0 0,0.16691 z"
       style="fill:#000000;fill-opacity:1;fill-rule:nonzero;stroke:none"
       id="path4709"
       inkscape:connector-curvature="0" />
    <text
       transform="scale(0.95727719,1.0446295)"
       style="font-variant:normal;font-weight:normal;font-size:9.81216335px;font-family:Helvetica;-inkscape-font-specification:Helvetica;writing-mode:lr-tb;fill:#000000;fill-opacity:1;fill-rule:nonzero;stroke:none"
       id="text4711"
       x="303.50067"
       y="498.73819">
      <tspan
         x="303.50067 308.90326 311.86554"
         y="498.73819"
         sodipodi:role="line"
         id="tspan4713">0.4</tspan>
    </text>
    <g
       id="g4715"
       transform="matrix(1.3902932,0,0,-1.3902932,325.90335,508.98453)">
      <path
         d="M 0,0 0,2.28"
         style="fill:none;stroke:#000000;stroke-width:0.10789091;stroke-linecap:butt;stroke-linejoin:miter;stroke-miterlimit:10;stroke-dasharray:none;stroke-opacity:1"
         id="path4717"
         inkscape:connector-curvature="0" />
    </g>
    <path
       d="m 326.07018,506.14833 0.16684,0 0,-0.16683 -0.16684,0 0,0.16683 z"
       style="fill:#000000;fill-opacity:1;fill-rule:nonzero;stroke:none"
       id="path4719"
       inkscape:connector-curvature="0" />
    <g
       id="g4721"
       transform="matrix(1.3902932,0,0,-1.3902932,325.90335,310.28383)">
      <path
         d="M 0,0 0,-1.68"
         style="fill:none;stroke:#000000;stroke-width:0.10789091;stroke-linecap:butt;stroke-linejoin:miter;stroke-miterlimit:10;stroke-dasharray:none;stroke-opacity:1"
         id="path4723"
         inkscape:connector-curvature="0" />
    </g>
    <path
       d="m 326.07018,312.95319 0.16684,0 0,-0.16691 -0.16684,0 0,0.16691 z"
       style="fill:#000000;fill-opacity:1;fill-rule:nonzero;stroke:none"
       id="path4725"
       inkscape:connector-curvature="0" />
    <text
       transform="scale(0.95727719,1.0446295)"
       style="font-variant:normal;font-weight:normal;font-size:9.81216335px;font-family:Helvetica;-inkscape-font-specification:Helvetica;writing-mode:lr-tb;fill:#000000;fill-opacity:1;fill-rule:nonzero;stroke:none"
       id="text4727"
       x="333.82556"
       y="498.73819">
      <tspan
         x="333.82556 339.05347 342.19043"
         y="498.73819"
         sodipodi:role="line"
         id="tspan4729">0.5</tspan>
    </text>
    <g
       id="g4731"
       transform="matrix(1.3902932,0,0,-1.3902932,354.26533,508.98453)">
      <path
         d="M 0,0 0,2.28"
         style="fill:none;stroke:#000000;stroke-width:0.10789091;stroke-linecap:butt;stroke-linejoin:miter;stroke-miterlimit:10;stroke-dasharray:none;stroke-opacity:1"
         id="path4733"
         inkscape:connector-curvature="0" />
    </g>
    <path
       d="m 354.26533,506.14833 0.16683,0 0,-0.16683 -0.16683,0 0,0.16683 z"
       style="fill:#000000;fill-opacity:1;fill-rule:nonzero;stroke:none"
       id="path4735"
       inkscape:connector-curvature="0" />
    <g
       id="g4737"
       transform="matrix(1.3902932,0,0,-1.3902932,354.26533,310.28383)">
      <path
         d="M 0,0 0,-1.68"
         style="fill:none;stroke:#000000;stroke-width:0.10789091;stroke-linecap:butt;stroke-linejoin:miter;stroke-miterlimit:10;stroke-dasharray:none;stroke-opacity:1"
         id="path4739"
         inkscape:connector-curvature="0" />
    </g>
    <path
       d="m 354.26533,312.95319 0.16683,0 0,-0.16691 -0.16683,0 0,0.16691 z"
       style="fill:#000000;fill-opacity:1;fill-rule:nonzero;stroke:none"
       id="path4741"
       inkscape:connector-curvature="0" />
    <text
       transform="scale(0.95727719,1.0446295)"
       style="font-variant:normal;font-weight:normal;font-size:9.81216335px;font-family:Helvetica;-inkscape-font-specification:Helvetica;writing-mode:lr-tb;fill:#000000;fill-opacity:1;fill-rule:nonzero;stroke:none"
       id="text4743"
       x="363.27908"
       y="498.73819">
      <tspan
         x="363.27908 368.68164 371.6449"
         y="498.73819"
         sodipodi:role="line"
         id="tspan4745">0.6</tspan>
    </text>
    <g
       id="g4747"
       transform="matrix(1.3902932,0,0,-1.3902932,382.46047,508.98453)">
      <path
         d="M 0,0 0,2.28"
         style="fill:none;stroke:#000000;stroke-width:0.10789091;stroke-linecap:butt;stroke-linejoin:miter;stroke-miterlimit:10;stroke-dasharray:none;stroke-opacity:1"
         id="path4749"
         inkscape:connector-curvature="0" />
    </g>
    <path
       d="m 382.46047,506.14833 0.16684,0 0,-0.16683 -0.16684,0 0,0.16683 z"
       style="fill:#000000;fill-opacity:1;fill-rule:nonzero;stroke:none"
       id="path4751"
       inkscape:connector-curvature="0" />
    <g
       id="g4753"
       transform="matrix(1.3902932,0,0,-1.3902932,382.46047,310.28383)">
      <path
         d="M 0,0 0,-1.68"
         style="fill:none;stroke:#000000;stroke-width:0.10789091;stroke-linecap:butt;stroke-linejoin:miter;stroke-miterlimit:10;stroke-dasharray:none;stroke-opacity:1"
         id="path4755"
         inkscape:connector-curvature="0" />
    </g>
    <path
       d="m 382.46047,312.95319 0.16684,0 0,-0.16691 -0.16684,0 0,0.16691 z"
       style="fill:#000000;fill-opacity:1;fill-rule:nonzero;stroke:none"
       id="path4757"
       inkscape:connector-curvature="0" />
    <text
       transform="scale(0.95727719,1.0446295)"
       style="font-variant:normal;font-weight:normal;font-size:9.81216335px;font-family:Helvetica;-inkscape-font-specification:Helvetica;writing-mode:lr-tb;fill:#000000;fill-opacity:1;fill-rule:nonzero;stroke:none"
       id="text4759"
       x="392.73254"
       y="498.73819">
      <tspan
         x="392.73254 398.1351 401.09741"
         y="498.73819"
         sodipodi:role="line"
         id="tspan4761">0.7</tspan>
    </text>
    <g
       id="g4763"
       transform="matrix(1.3902932,0,0,-1.3902932,410.65562,508.98453)">
      <path
         d="M 0,0 0,2.28"
         style="fill:none;stroke:#000000;stroke-width:0.10789091;stroke-linecap:butt;stroke-linejoin:miter;stroke-miterlimit:10;stroke-dasharray:none;stroke-opacity:1"
         id="path4765"
         inkscape:connector-curvature="0" />
    </g>
    <path
       d="m 410.82246,506.14833 0.16681,0 0,-0.16683 -0.16681,0 0,0.16683 z"
       style="fill:#000000;fill-opacity:1;fill-rule:nonzero;stroke:none"
       id="path4767"
       inkscape:connector-curvature="0" />
    <g
       id="g4769"
       transform="matrix(1.3902932,0,0,-1.3902932,410.65562,310.28383)">
      <path
         d="M 0,0 0,-1.68"
         style="fill:none;stroke:#000000;stroke-width:0.10789091;stroke-linecap:butt;stroke-linejoin:miter;stroke-miterlimit:10;stroke-dasharray:none;stroke-opacity:1"
         id="path4771"
         inkscape:connector-curvature="0" />
    </g>
    <path
       d="m 410.82246,312.95319 0.16681,0 0,-0.16691 -0.16681,0 0,0.16691 z"
       style="fill:#000000;fill-opacity:1;fill-rule:nonzero;stroke:none"
       id="path4773"
       inkscape:connector-curvature="0" />
    <text
       transform="scale(0.95727719,1.0446295)"
       style="font-variant:normal;font-weight:normal;font-size:9.81216335px;font-family:Helvetica;-inkscape-font-specification:Helvetica;writing-mode:lr-tb;fill:#000000;fill-opacity:1;fill-rule:nonzero;stroke:none"
       id="text4775"
       x="422.36029"
       y="498.73819">
      <tspan
         x="422.36029 427.5892 430.55148"
         y="498.73819"
         sodipodi:role="line"
         id="tspan4777">0.8</tspan>
    </text>
    <g
       id="g4779"
       transform="matrix(1.3902932,0,0,-1.3902932,438.85077,508.98453)">
      <path
         d="M 0,0 0,2.28"
         style="fill:none;stroke:#000000;stroke-width:0.10789091;stroke-linecap:butt;stroke-linejoin:miter;stroke-miterlimit:10;stroke-dasharray:none;stroke-opacity:1"
         id="path4781"
         inkscape:connector-curvature="0" />
    </g>
    <path
       d="m 439.0176,506.14833 0.16681,0 0,-0.16683 -0.16681,0 0,0.16683 z"
       style="fill:#000000;fill-opacity:1;fill-rule:nonzero;stroke:none"
       id="path4783"
       inkscape:connector-curvature="0" />
    <g
       id="g4785"
       transform="matrix(1.3902932,0,0,-1.3902932,438.85077,310.28383)">
      <path
         d="M 0,0 0,-1.68"
         style="fill:none;stroke:#000000;stroke-width:0.10789091;stroke-linecap:butt;stroke-linejoin:miter;stroke-miterlimit:10;stroke-dasharray:none;stroke-opacity:1"
         id="path4787"
         inkscape:connector-curvature="0" />
    </g>
    <path
       d="m 439.0176,312.95319 0.16681,0 0,-0.16691 -0.16681,0 0,0.16691 z"
       style="fill:#000000;fill-opacity:1;fill-rule:nonzero;stroke:none"
       id="path4789"
       inkscape:connector-curvature="0" />
    <text
       transform="scale(0.95727719,1.0446295)"
       style="font-variant:normal;font-weight:normal;font-size:9.81216335px;font-family:Helvetica;-inkscape-font-specification:Helvetica;writing-mode:lr-tb;fill:#000000;fill-opacity:1;fill-rule:nonzero;stroke:none"
       id="text4791"
       x="451.81375"
       y="498.73819">
      <tspan
         x="451.81375 457.04266 460.1806"
         y="498.73819"
         sodipodi:role="line"
         id="tspan4793">0.9</tspan>
    </text>
    <g
       id="g4795"
       transform="matrix(1.3902932,0,0,-1.3902932,467.88009,508.98453)">
      <path
         d="M 0,0 0,2.28"
         style="fill:none;stroke:#000000;stroke-width:0.10789091;stroke-linecap:butt;stroke-linejoin:miter;stroke-miterlimit:10;stroke-dasharray:none;stroke-opacity:1"
         id="path4797"
         inkscape:connector-curvature="0" />
    </g>
    <path
       d="m 467.88009,506.14833 0.16678,0 0,-0.16683 -0.16678,0 0,0.16683 z"
       style="fill:#000000;fill-opacity:1;fill-rule:nonzero;stroke:none"
       id="path4799"
       inkscape:connector-curvature="0" />
    <g
       id="g4801"
       transform="matrix(1.3902932,0,0,-1.3902932,467.88009,310.28383)">
      <path
         d="M 0,0 0,-1.68"
         style="fill:none;stroke:#000000;stroke-width:0.10789091;stroke-linecap:butt;stroke-linejoin:miter;stroke-miterlimit:10;stroke-dasharray:none;stroke-opacity:1"
         id="path4803"
         inkscape:connector-curvature="0" />
    </g>
    <path
       d="m 467.88009,312.95319 0.16678,0 0,-0.16691 -0.16678,0 0,0.16691 z"
       style="fill:#000000;fill-opacity:1;fill-rule:nonzero;stroke:none"
       id="path4805"
       inkscape:connector-curvature="0" />
    <text
       transform="scale(0.95727719,1.0446295)"
       style="font-variant:normal;font-weight:normal;font-size:9.81216335px;font-family:Helvetica;-inkscape-font-specification:Helvetica;writing-mode:lr-tb;fill:#000000;fill-opacity:1;fill-rule:nonzero;stroke:none"
       id="text4807"
       x="486.49567"
       y="498.73819">
      <tspan
         x="486.49567"
         y="498.73819"
         id="tspan4809">1</tspan>
    </text>
    <g
       id="g4811"
       transform="matrix(1.3902932,0,0,-1.3902932,194.27039,508.98453)">
      <path
         d="M 0,0 1.56,0"
         style="fill:none;stroke:#000000;stroke-width:0.10789091;stroke-linecap:butt;stroke-linejoin:miter;stroke-miterlimit:10;stroke-dasharray:none;stroke-opacity:1"
         id="path4813"
         inkscape:connector-curvature="0" />
    </g>
    <path
       d="m 196.43925,509.15136 0.16684,0 0,-0.16683 -0.16684,0 0,0.16683 z"
       style="fill:#000000;fill-opacity:1;fill-rule:nonzero;stroke:none"
       id="path4815"
       inkscape:connector-curvature="0" />
    <g
       id="g4817"
       transform="matrix(1.3902932,0,0,-1.3902932,467.88009,508.98453)">
      <path
         d="M 0,0 -2.04,0"
         style="fill:none;stroke:#000000;stroke-width:0.10789091;stroke-linecap:butt;stroke-linejoin:miter;stroke-miterlimit:10;stroke-dasharray:none;stroke-opacity:1"
         id="path4819"
         inkscape:connector-curvature="0" />
    </g>
    <path
       d="m 465.04389,509.15136 0.16684,0 0,-0.16683 -0.16684,0 0,0.16683 z"
       style="fill:#000000;fill-opacity:1;fill-rule:nonzero;stroke:none"
       id="path4821"
       inkscape:connector-curvature="0" />
    <text
       transform="scale(0.95727719,1.0446295)"
       style="font-variant:normal;font-weight:normal;font-size:9.81216335px;font-family:Helvetica;-inkscape-font-specification:Helvetica;writing-mode:lr-tb;fill:#000000;fill-opacity:1;fill-rule:nonzero;stroke:none"
       id="text4823"
       x="194.74936"
       y="490.43344">
      <tspan
         x="194.74936"
         y="490.43344"
         id="tspan4825">0</tspan>
    </text>
    <g
       id="g4827"
       transform="matrix(1.3902932,0,0,-1.3902932,194.27039,483.79242)">
      <path
         d="M 0,0 1.56,0"
         style="fill:none;stroke:#000000;stroke-width:0.10789091;stroke-linecap:butt;stroke-linejoin:miter;stroke-miterlimit:10;stroke-dasharray:none;stroke-opacity:1"
         id="path4829"
         inkscape:connector-curvature="0" />
    </g>
    <path
       d="m 196.43925,483.95925 0.16684,0 0,-0.16683 -0.16684,0 0,0.16683 z"
       style="fill:#000000;fill-opacity:1;fill-rule:nonzero;stroke:none"
       id="path4831"
       inkscape:connector-curvature="0" />
    <g
       id="g4833"
       transform="matrix(1.3902932,0,0,-1.3902932,467.88009,483.79242)">
      <path
         d="M 0,0 -2.04,0"
         style="fill:none;stroke:#000000;stroke-width:0.10789091;stroke-linecap:butt;stroke-linejoin:miter;stroke-miterlimit:10;stroke-dasharray:none;stroke-opacity:1"
         id="path4835"
         inkscape:connector-curvature="0" />
    </g>
    <path
       d="m 465.04389,483.95925 0.16684,0 0,-0.16683 -0.16684,0 0,0.16683 z"
       style="fill:#000000;fill-opacity:1;fill-rule:nonzero;stroke:none"
       id="path4837"
       inkscape:connector-curvature="0" />
    <text
       transform="scale(0.95727719,1.0446295)"
       style="font-variant:normal;font-weight:normal;font-size:9.81216335px;font-family:Helvetica;-inkscape-font-specification:Helvetica;writing-mode:lr-tb;fill:#000000;fill-opacity:1;fill-rule:nonzero;stroke:none"
       id="text4839"
       x="189.34666"
       y="466.15787">
      <tspan
         x="189.34666 194.74922"
         y="466.15787"
         sodipodi:role="line"
         id="tspan4841">50</tspan>
    </text>
    <g
       id="g4843"
       transform="matrix(1.3902932,0,0,-1.3902932,194.27039,459.26764)">
      <path
         d="M 0,0 1.56,0"
         style="fill:none;stroke:#000000;stroke-width:0.10789091;stroke-linecap:butt;stroke-linejoin:miter;stroke-miterlimit:10;stroke-dasharray:none;stroke-opacity:1"
         id="path4845"
         inkscape:connector-curvature="0" />
    </g>
    <path
       d="m 196.43925,459.60131 0.16684,0 0,-0.16683 -0.16684,0 0,0.16683 z"
       style="fill:#000000;fill-opacity:1;fill-rule:nonzero;stroke:none"
       id="path4847"
       inkscape:connector-curvature="0" />
    <g
       id="g4849"
       transform="matrix(1.3902932,0,0,-1.3902932,467.88009,459.26764)">
      <path
         d="M 0,0 -2.04,0"
         style="fill:none;stroke:#000000;stroke-width:0.10789091;stroke-linecap:butt;stroke-linejoin:miter;stroke-miterlimit:10;stroke-dasharray:none;stroke-opacity:1"
         id="path4851"
         inkscape:connector-curvature="0" />
    </g>
    <path
       d="m 465.04389,459.60131 0.16684,0 0,-0.16683 -0.16684,0 0,0.16683 z"
       style="fill:#000000;fill-opacity:1;fill-rule:nonzero;stroke:none"
       id="path4853"
       inkscape:connector-curvature="0" />
    <text
       transform="scale(0.95727719,1.0446295)"
       style="font-variant:normal;font-weight:normal;font-size:9.81216335px;font-family:Helvetica;-inkscape-font-specification:Helvetica;writing-mode:lr-tb;fill:#000000;fill-opacity:1;fill-rule:nonzero;stroke:none"
       id="text4855"
       x="184.11824"
       y="442.84061">
      <tspan
         x="184.11824 189.34715 194.74971"
         y="442.84061"
         sodipodi:role="line"
         id="tspan4857">100</tspan>
    </text>
    <g
       id="g4859"
       transform="matrix(1.3902932,0,0,-1.3902932,194.27039,434.07553)">
      <path
         d="M 0,0 1.56,0"
         style="fill:none;stroke:#000000;stroke-width:0.10789091;stroke-linecap:butt;stroke-linejoin:miter;stroke-miterlimit:10;stroke-dasharray:none;stroke-opacity:1"
         id="path4861"
         inkscape:connector-curvature="0" />
    </g>
    <path
       d="m 196.43925,434.24237 0.16684,0 0,-0.16684 -0.16684,0 0,0.16684 z"
       style="fill:#000000;fill-opacity:1;fill-rule:nonzero;stroke:none"
       id="path4863"
       inkscape:connector-curvature="0" />
    <g
       id="g4865"
       transform="matrix(1.3902932,0,0,-1.3902932,467.88009,434.07553)">
      <path
         d="M 0,0 -2.04,0"
         style="fill:none;stroke:#000000;stroke-width:0.10789091;stroke-linecap:butt;stroke-linejoin:miter;stroke-miterlimit:10;stroke-dasharray:none;stroke-opacity:1"
         id="path4867"
         inkscape:connector-curvature="0" />
    </g>
    <path
       d="m 465.04389,434.24237 0.16684,0 0,-0.16684 -0.16684,0 0,0.16684 z"
       style="fill:#000000;fill-opacity:1;fill-rule:nonzero;stroke:none"
       id="path4869"
       inkscape:connector-curvature="0" />
    <text
       transform="scale(0.95727719,1.0446295)"
       style="font-variant:normal;font-weight:normal;font-size:9.81216335px;font-family:Helvetica;-inkscape-font-specification:Helvetica;writing-mode:lr-tb;fill:#000000;fill-opacity:1;fill-rule:nonzero;stroke:none"
       id="text4871"
       x="184.11824"
       y="418.72473">
      <tspan
         x="184.11824 189.34715 194.74971"
         y="418.72473"
         sodipodi:role="line"
         id="tspan4873">150</tspan>
    </text>
    <g
       id="g4875"
       transform="matrix(1.3902932,0,0,-1.3902932,194.27039,409.55076)">
      <path
         d="M 0,0 1.56,0"
         style="fill:none;stroke:#000000;stroke-width:0.10789091;stroke-linecap:butt;stroke-linejoin:miter;stroke-miterlimit:10;stroke-dasharray:none;stroke-opacity:1"
         id="path4877"
         inkscape:connector-curvature="0" />
    </g>
    <path
       d="m 196.43925,409.88443 0.16684,0 0,-0.16684 -0.16684,0 0,0.16684 z"
       style="fill:#000000;fill-opacity:1;fill-rule:nonzero;stroke:none"
       id="path4879"
       inkscape:connector-curvature="0" />
    <g
       id="g4881"
       transform="matrix(1.3902932,0,0,-1.3902932,467.88009,409.55076)">
      <path
         d="M 0,0 -2.04,0"
         style="fill:none;stroke:#000000;stroke-width:0.10789091;stroke-linecap:butt;stroke-linejoin:miter;stroke-miterlimit:10;stroke-dasharray:none;stroke-opacity:1"
         id="path4883"
         inkscape:connector-curvature="0" />
    </g>
    <path
       d="m 465.04389,409.88443 0.16684,0 0,-0.16684 -0.16684,0 0,0.16684 z"
       style="fill:#000000;fill-opacity:1;fill-rule:nonzero;stroke:none"
       id="path4885"
       inkscape:connector-curvature="0" />
    <text
       transform="scale(0.95727719,1.0446295)"
       style="font-variant:normal;font-weight:normal;font-size:9.81216335px;font-family:Helvetica;-inkscape-font-specification:Helvetica;writing-mode:lr-tb;fill:#000000;fill-opacity:1;fill-rule:nonzero;stroke:none"
       id="text4887"
       x="184.11824"
       y="395.24774">
      <tspan
         x="184.11824 189.34715 194.74971"
         y="395.24774"
         sodipodi:role="line"
         id="tspan4889">200</tspan>
    </text>
    <g
       id="g4891"
       transform="matrix(1.3902932,0,0,-1.3902932,194.27039,384.35865)">
      <path
         d="M 0,0 1.56,0"
         style="fill:none;stroke:#000000;stroke-width:0.10789091;stroke-linecap:butt;stroke-linejoin:miter;stroke-miterlimit:10;stroke-dasharray:none;stroke-opacity:1"
         id="path4893"
         inkscape:connector-curvature="0" />
    </g>
    <path
       d="m 196.43925,384.69232 0.16684,0 0,-0.16684 -0.16684,0 0,0.16684 z"
       style="fill:#000000;fill-opacity:1;fill-rule:nonzero;stroke:none"
       id="path4895"
       inkscape:connector-curvature="0" />
    <g
       id="g4897"
       transform="matrix(1.3902932,0,0,-1.3902932,467.88009,384.35865)">
      <path
         d="M 0,0 -2.04,0"
         style="fill:none;stroke:#000000;stroke-width:0.10789091;stroke-linecap:butt;stroke-linejoin:miter;stroke-miterlimit:10;stroke-dasharray:none;stroke-opacity:1"
         id="path4899"
         inkscape:connector-curvature="0" />
    </g>
    <path
       d="m 465.04389,384.69232 0.16684,0 0,-0.16684 -0.16684,0 0,0.16684 z"
       style="fill:#000000;fill-opacity:1;fill-rule:nonzero;stroke:none"
       id="path4901"
       inkscape:connector-curvature="0" />
    <text
       transform="scale(0.95727719,1.0446295)"
       style="font-variant:normal;font-weight:normal;font-size:9.81216335px;font-family:Helvetica;-inkscape-font-specification:Helvetica;writing-mode:lr-tb;fill:#000000;fill-opacity:1;fill-rule:nonzero;stroke:none"
       id="text4903"
       x="184.11824"
       y="371.13193">
      <tspan
         x="184.11824 189.34715 194.74971"
         y="371.13193"
         sodipodi:role="line"
         id="tspan4905">250</tspan>
    </text>
    <g
       id="g4907"
       transform="matrix(1.3902932,0,0,-1.3902932,194.27039,360.00071)">
      <path
         d="M 0,0 1.56,0"
         style="fill:none;stroke:#000000;stroke-width:0.10789091;stroke-linecap:butt;stroke-linejoin:miter;stroke-miterlimit:10;stroke-dasharray:none;stroke-opacity:1"
         id="path4909"
         inkscape:connector-curvature="0" />
    </g>
    <path
       d="m 196.43925,360.16755 0.16684,0 0,-0.16684 -0.16684,0 0,0.16684 z"
       style="fill:#000000;fill-opacity:1;fill-rule:nonzero;stroke:none"
       id="path4911"
       inkscape:connector-curvature="0" />
    <g
       id="g4913"
       transform="matrix(1.3902932,0,0,-1.3902932,467.88009,360.00071)">
      <path
         d="M 0,0 -2.04,0"
         style="fill:none;stroke:#000000;stroke-width:0.10789091;stroke-linecap:butt;stroke-linejoin:miter;stroke-miterlimit:10;stroke-dasharray:none;stroke-opacity:1"
         id="path4915"
         inkscape:connector-curvature="0" />
    </g>
    <path
       d="m 465.04389,360.16755 0.16684,0 0,-0.16684 -0.16684,0 0,0.16684 z"
       style="fill:#000000;fill-opacity:1;fill-rule:nonzero;stroke:none"
       id="path4917"
       inkscape:connector-curvature="0" />
    <text
       transform="scale(0.95727719,1.0446295)"
       style="font-variant:normal;font-weight:normal;font-size:9.81216335px;font-family:Helvetica;-inkscape-font-specification:Helvetica;writing-mode:lr-tb;fill:#000000;fill-opacity:1;fill-rule:nonzero;stroke:none"
       id="text4919"
       x="184.11824"
       y="347.65491">
      <tspan
         x="184.11824 189.34715 194.74971"
         y="347.65491"
         sodipodi:role="line"
         id="tspan4921">300</tspan>
    </text>
    <g
       id="g4923"
       transform="matrix(1.3902932,0,0,-1.3902932,194.27039,334.64176)">
      <path
         d="M 0,0 1.56,0"
         style="fill:none;stroke:#000000;stroke-width:0.10789091;stroke-linecap:butt;stroke-linejoin:miter;stroke-miterlimit:10;stroke-dasharray:none;stroke-opacity:1"
         id="path4925"
         inkscape:connector-curvature="0" />
    </g>
    <path
       d="m 196.43925,334.97543 0.16684,0 0,-0.16683 -0.16684,0 0,0.16683 z"
       style="fill:#000000;fill-opacity:1;fill-rule:nonzero;stroke:none"
       id="path4927"
       inkscape:connector-curvature="0" />
    <g
       id="g4929"
       transform="matrix(1.3902932,0,0,-1.3902932,467.88009,334.64176)">
      <path
         d="M 0,0 -2.04,0"
         style="fill:none;stroke:#000000;stroke-width:0.10789091;stroke-linecap:butt;stroke-linejoin:miter;stroke-miterlimit:10;stroke-dasharray:none;stroke-opacity:1"
         id="path4931"
         inkscape:connector-curvature="0" />
    </g>
    <path
       d="m 465.04389,334.97543 0.16684,0 0,-0.16683 -0.16684,0 0,0.16683 z"
       style="fill:#000000;fill-opacity:1;fill-rule:nonzero;stroke:none"
       id="path4933"
       inkscape:connector-curvature="0" />
    <text
       transform="scale(0.95727719,1.0446295)"
       style="font-variant:normal;font-weight:normal;font-size:9.81216335px;font-family:Helvetica;-inkscape-font-specification:Helvetica;writing-mode:lr-tb;fill:#000000;fill-opacity:1;fill-rule:nonzero;stroke:none"
       id="text4935"
       x="184.11824"
       y="323.53906">
      <tspan
         x="184.11824 189.34715 194.74971"
         y="323.53906"
         sodipodi:role="line"
         id="tspan4937">350</tspan>
    </text>
    <g
       id="g4939"
       transform="matrix(1.3902932,0,0,-1.3902932,194.27039,310.28383)">
      <path
         d="M 0,0 1.56,0"
         style="fill:none;stroke:#000000;stroke-width:0.10789091;stroke-linecap:butt;stroke-linejoin:miter;stroke-miterlimit:10;stroke-dasharray:none;stroke-opacity:1"
         id="path4941"
         inkscape:connector-curvature="0" />
    </g>
    <path
       d="m 196.43925,310.45066 0.16684,0 0,-0.16683 -0.16684,0 0,0.16683 z"
       style="fill:#000000;fill-opacity:1;fill-rule:nonzero;stroke:none"
       id="path4943"
       inkscape:connector-curvature="0" />
    <g
       id="g4945"
       transform="matrix(1.3902932,0,0,-1.3902932,467.88009,310.28383)">
      <path
         d="M 0,0 -2.04,0"
         style="fill:none;stroke:#000000;stroke-width:0.10789091;stroke-linecap:butt;stroke-linejoin:miter;stroke-miterlimit:10;stroke-dasharray:none;stroke-opacity:1"
         id="path4947"
         inkscape:connector-curvature="0" />
    </g>
    <path
       d="m 465.04389,310.45066 0.16684,0 0,-0.16683 -0.16684,0 0,0.16683 z"
       style="fill:#000000;fill-opacity:1;fill-rule:nonzero;stroke:none"
       id="path4949"
       inkscape:connector-curvature="0" />
    <text
       transform="scale(0.95727719,1.0446295)"
       style="font-variant:normal;font-weight:normal;font-size:9.81216335px;font-family:Helvetica;-inkscape-font-specification:Helvetica;writing-mode:lr-tb;fill:#000000;fill-opacity:1;fill-rule:nonzero;stroke:none"
       id="text4951"
       x="184.11824"
       y="300.22137">
      <tspan
         x="184.11824 189.34715 194.74971"
         y="300.22137"
         sodipodi:role="line"
         id="tspan4953">400</tspan>
    </text>
    <g
       id="g4955"
       transform="matrix(1.3902932,0,0,-1.3902932,194.27039,310.28383)">
      <path
         d="M 0,0 196.8,0"
         style="fill:none;stroke:#000000;stroke-width:0.10789091;stroke-linecap:butt;stroke-linejoin:miter;stroke-miterlimit:10;stroke-dasharray:none;stroke-opacity:1"
         id="path4957"
         inkscape:connector-curvature="0" />
    </g>
    <path
       d="m 467.88009,310.45066 0.16678,0 0,-0.16683 -0.16678,0 0,0.16683 z"
       style="fill:#000000;fill-opacity:1;fill-rule:nonzero;stroke:none"
       id="path4959"
       inkscape:connector-curvature="0" />
    <g
       id="g4961"
       transform="matrix(1.3902932,0,0,-1.3902932,194.27039,508.98453)">
      <path
         d="M 0,0 196.8,0"
         style="fill:none;stroke:#000000;stroke-width:0.10789091;stroke-linecap:butt;stroke-linejoin:miter;stroke-miterlimit:10;stroke-dasharray:none;stroke-opacity:1"
         id="path4963"
         inkscape:connector-curvature="0" />
    </g>
    <path
       d="m 467.88009,509.15136 0.16678,0 0,-0.16683 -0.16678,0 0,0.16683 z"
       style="fill:#000000;fill-opacity:1;fill-rule:nonzero;stroke:none"
       id="path4965"
       inkscape:connector-curvature="0" />
    <g
       id="g4967"
       transform="matrix(1.3902932,0,0,-1.3902932,467.88009,508.98453)">
      <path
         d="M 0,0 0,142.92"
         style="fill:none;stroke:#000000;stroke-width:0.10789091;stroke-linecap:butt;stroke-linejoin:miter;stroke-miterlimit:10;stroke-dasharray:none;stroke-opacity:1"
         id="path4969"
         inkscape:connector-curvature="0" />
    </g>
    <path
       d="m 467.88009,310.45066 0.16678,0 0,-0.16683 -0.16678,0 0,0.16683 z"
       style="fill:#000000;fill-opacity:1;fill-rule:nonzero;stroke:none"
       id="path4971"
       inkscape:connector-curvature="0" />
    <g
       id="g4973"
       transform="matrix(1.3902932,0,0,-1.3902932,194.27039,508.98453)">
      <path
         d="M 0,0 0,142.92"
         style="fill:none;stroke:#000000;stroke-width:0.10789091;stroke-linecap:butt;stroke-linejoin:miter;stroke-miterlimit:10;stroke-dasharray:none;stroke-opacity:1"
         id="path4975"
         inkscape:connector-curvature="0" />
    </g>
    <path
       d="m 194.27039,310.45066 0.16683,0 0,-0.16683 -0.16683,0 0,0.16683 z"
       style="fill:#000000;fill-opacity:1;fill-rule:nonzero;stroke:none"
       id="path4977"
       inkscape:connector-curvature="0" />
    <g
       id="g4979"
       transform="matrix(1.3902932,0,0,-1.3902932,215.29162,417.55885)">
      <path
         d="M 0,0 C 0,1.32 -0.96,2.28 -2.16,2.28 -3.24,2.28 -4.2,1.32 -4.2,0 c 0,-1.2 0.96,-2.28 2.04,-2.28 C -0.96,-2.28 0,-1.2 0,0 Z"
         style="fill:none;stroke:#0000ff;stroke-width:0.10789091;stroke-linecap:butt;stroke-linejoin:miter;stroke-miterlimit:10;stroke-dasharray:none;stroke-opacity:1"
         id="path4981"
         inkscape:connector-curvature="0" />
      <g
         id="g4983"
         transform="translate(20.28,-32.88)">
        <path
           d="M 0,0 C 0,1.32 -0.96,2.28 -2.04,2.28 -3.24,2.28 -4.2,1.32 -4.2,0 c 0,-1.2 0.96,-2.28 2.16,-2.28 C -0.96,-2.28 0,-1.2 0,0 Z"
           style="fill:none;stroke:#0000ff;stroke-width:0.10789091;stroke-linecap:butt;stroke-linejoin:miter;stroke-miterlimit:10;stroke-dasharray:none;stroke-opacity:1"
           id="path4985"
           inkscape:connector-curvature="0" />
        <g
           id="g4987"
           transform="translate(20.28,-10.8)">
          <path
             d="M 0,0 C 0,1.32 -0.96,2.28 -2.04,2.28 -3.24,2.28 -4.2,1.32 -4.2,0 c 0,-1.2 0.96,-2.28 2.16,-2.28 C -0.96,-2.28 0,-1.2 0,0 Z"
             style="fill:none;stroke:#0000ff;stroke-width:0.10789091;stroke-linecap:butt;stroke-linejoin:miter;stroke-miterlimit:10;stroke-dasharray:none;stroke-opacity:1"
             id="path4989"
             inkscape:connector-curvature="0" />
          <g
             id="g4991"
             transform="translate(20.28,-5.64)">
            <path
               d="m 0,0 c 0,1.32 -0.84,2.28 -2.04,2.28 -1.2,0 -2.04,-0.96 -2.04,-2.28 0,-1.2 0.84,-2.28 2.04,-2.28 C -0.84,-2.28 0,-1.2 0,0 Z"
               style="fill:none;stroke:#0000ff;stroke-width:0.10789091;stroke-linecap:butt;stroke-linejoin:miter;stroke-miterlimit:10;stroke-dasharray:none;stroke-opacity:1"
               id="path4993"
               inkscape:connector-curvature="0" />
            <g
               id="g4995"
               transform="translate(20.88,-2.88)">
              <path
                 d="M 0,0 C 0,1.32 -0.96,2.28 -2.16,2.28 -3.24,2.28 -4.2,1.32 -4.2,0 c 0,-1.2 0.96,-2.16 2.16,-2.16 C -0.96,-2.16 0,-1.2 0,0 Z"
                 style="fill:none;stroke:#0000ff;stroke-width:0.10789091;stroke-linecap:butt;stroke-linejoin:miter;stroke-miterlimit:10;stroke-dasharray:none;stroke-opacity:1"
                 id="path4997"
                 inkscape:connector-curvature="0" />
              <g
                 id="g4999"
                 transform="translate(20.28,-2.16)">
                <path
                   d="M 0,0 C 0,1.2 -0.96,2.16 -2.04,2.16 -3.24,2.16 -4.2,1.2 -4.2,0 c 0,-1.32 0.96,-2.28 2.16,-2.28 C -0.96,-2.28 0,-1.32 0,0 Z"
                   style="fill:none;stroke:#0000ff;stroke-width:0.10789091;stroke-linecap:butt;stroke-linejoin:miter;stroke-miterlimit:10;stroke-dasharray:none;stroke-opacity:1"
                   id="path5001"
                   inkscape:connector-curvature="0" />
                <g
                   id="g5003"
                   transform="translate(20.28,-1.8)">
                  <path
                     d="m 0,0 c 0,1.32 -0.84,2.28 -2.04,2.28 -1.2,0 -2.04,-0.96 -2.04,-2.28 0,-1.2 0.84,-2.28 2.04,-2.28 C -0.84,-2.28 0,-1.2 0,0 Z"
                     style="fill:none;stroke:#0000ff;stroke-width:0.10789091;stroke-linecap:butt;stroke-linejoin:miter;stroke-miterlimit:10;stroke-dasharray:none;stroke-opacity:1"
                     id="path5005"
                     inkscape:connector-curvature="0" />
                  <g
                     id="g5007"
                     transform="translate(20.28,-1.08)">
                    <path
                       d="M 0,0 C 0,1.2 -0.84,2.28 -2.04,2.28 -3.12,2.28 -4.08,1.2 -4.08,0 c 0,-1.2 0.96,-2.28 2.04,-2.28 C -0.84,-2.28 0,-1.2 0,0 Z"
                       style="fill:none;stroke:#0000ff;stroke-width:0.10789091;stroke-linecap:butt;stroke-linejoin:miter;stroke-miterlimit:10;stroke-dasharray:none;stroke-opacity:1"
                       id="path5009"
                       inkscape:connector-curvature="0" />
                    <g
                       id="g5011"
                       transform="translate(20.4,-1.2)">
                      <path
                         d="m 0,0 c 0,1.32 -0.96,2.28 -2.16,2.28 -1.08,0 -2.04,-0.96 -2.04,-2.16 0,-1.32 0.96,-2.28 2.04,-2.28 C -0.96,-2.16 0,-1.2 0,0 Z"
                         style="fill:none;stroke:#0000ff;stroke-width:0.10789091;stroke-linecap:butt;stroke-linejoin:miter;stroke-miterlimit:10;stroke-dasharray:none;stroke-opacity:1"
                         id="path5013"
                         inkscape:connector-curvature="0" />
                      <g
                         id="g5015"
                         transform="translate(20.76,-0.48)">
                        <path
                           d="m 0,0 c 0,1.2 -0.96,2.28 -2.04,2.28 -1.2,0 -2.04,-1.08 -2.04,-2.28 0,-1.32 0.84,-2.28 2.04,-2.28 C -0.96,-2.28 0,-1.32 0,0 Z"
                           style="fill:none;stroke:#0000ff;stroke-width:0.10789091;stroke-linecap:butt;stroke-linejoin:miter;stroke-miterlimit:10;stroke-dasharray:none;stroke-opacity:1"
                           id="path5017"
                           inkscape:connector-curvature="0" />
                        <g
                           id="g5019"
                           transform="translate(-165.48,33.48)">
                          <path
                             d="M 0,0 2.04,2.76 0,5.64 -2.16,2.76 0,0 Z"
                             style="fill:none;stroke:#0000ff;stroke-width:0.10789091;stroke-linecap:butt;stroke-linejoin:miter;stroke-miterlimit:10;stroke-dasharray:none;stroke-opacity:1"
                             id="path5021"
                             inkscape:connector-curvature="0" />
                          <g
                             id="g5023"
                             transform="translate(20.28,-13.08)">
                            <path
                               d="M 0,0 2.04,2.88 0,5.64 -2.16,2.88 0,0 Z"
                               style="fill:none;stroke:#0000ff;stroke-width:0.10789091;stroke-linecap:butt;stroke-linejoin:miter;stroke-miterlimit:10;stroke-dasharray:none;stroke-opacity:1"
                               id="path5025"
                               inkscape:connector-curvature="0" />
                            <g
                               id="g5027"
                               transform="translate(20.28,-10.2)">
                              <path
                                 d="M 0,0 2.04,2.76 0,5.64 -2.04,2.76 0,0 Z"
                                 style="fill:none;stroke:#0000ff;stroke-width:0.10789091;stroke-linecap:butt;stroke-linejoin:miter;stroke-miterlimit:10;stroke-dasharray:none;stroke-opacity:1"
                                 id="path5029"
                                 inkscape:connector-curvature="0" />
                              <g
                                 id="g5031"
                                 transform="translate(20.76,-3.48)">
                                <path
                                   d="M 0,0 2.16,2.88 0,5.76 -2.04,2.88 0,0 Z"
                                   style="fill:none;stroke:#0000ff;stroke-width:0.10789091;stroke-linecap:butt;stroke-linejoin:miter;stroke-miterlimit:10;stroke-dasharray:none;stroke-opacity:1"
                                   id="path5033"
                                   inkscape:connector-curvature="0" />
                                <g
                                   id="g5035"
                                   transform="translate(20.4,-1.68)">
                                <path
                                   d="M 0,0 2.04,2.88 0,5.76 -2.16,2.88 0,0 Z"
                                   style="fill:none;stroke:#0000ff;stroke-width:0.10789091;stroke-linecap:butt;stroke-linejoin:miter;stroke-miterlimit:10;stroke-dasharray:none;stroke-opacity:1"
                                   id="path5037"
                                   inkscape:connector-curvature="0" />
                                </g>
                              </g>
                            </g>
                          </g>
                        </g>
                      </g>
                    </g>
                  </g>
                </g>
              </g>
            </g>
          </g>
        </g>
      </g>
    </g>
    <g
       id="g5039"
       transform="matrix(1.3320955,0,0,1.451049,97.672817,1348.1098)">
      <g
         id="g5041"
         transform="translate(73.016,-703.294)">
        <path
           d="M 0,0 3.256,3.219"
           style="fill:none;stroke:#0000ff;stroke-width:0.97641271;stroke-linecap:butt;stroke-linejoin:miter;stroke-miterlimit:10;stroke-dasharray:none;stroke-opacity:1"
           id="path5043"
           inkscape:connector-curvature="0" />
      </g>
    </g>
    <path
       d="m 199.44228,332.63974 0.16683,0 0,-0.16683 -0.16683,0 0,0.16683 z"
       style="fill:#0000ff;fill-opacity:1;fill-rule:nonzero;stroke:none"
       id="path5045"
       inkscape:connector-curvature="0" />
    <g
       id="g5047"
       transform="matrix(1.3320955,0,0,1.451049,97.672817,1348.1098)">
      <g
         id="g5049"
         transform="translate(76.273,-703.294)">
        <path
           d="M 0,0 -3.256,3.219"
           style="fill:none;stroke:#0000ff;stroke-width:0.97641271;stroke-linecap:butt;stroke-linejoin:miter;stroke-miterlimit:10;stroke-dasharray:none;stroke-opacity:1"
           id="path5051"
           inkscape:connector-curvature="0" />
      </g>
    </g>
    <path
       d="m 195.10456,332.63974 0.16684,0 0,-0.16683 -0.16684,0 0,0.16683 z"
       style="fill:#0000ff;fill-opacity:1;fill-rule:nonzero;stroke:none"
       id="path5053"
       inkscape:connector-curvature="0" />
    <g
       id="g5055"
       transform="matrix(1.3320955,0,0,1.451049,97.672817,1348.1098)">
      <g
         id="g5057"
         transform="translate(79.529,-664.2)">
        <path
           d="M 0,0 3.256,3.333"
           style="fill:none;stroke:#0000ff;stroke-width:0.97641271;stroke-linecap:butt;stroke-linejoin:miter;stroke-miterlimit:10;stroke-dasharray:none;stroke-opacity:1"
           id="path5059"
           inkscape:connector-curvature="0" />
      </g>
    </g>
    <path
       d="m 208.11771,389.3637 0.16683,0 0,-0.16683 -0.16683,0 0,0.16683 z"
       style="fill:#0000ff;fill-opacity:1;fill-rule:nonzero;stroke:none"
       id="path5061"
       inkscape:connector-curvature="0" />
    <g
       id="g5063"
       transform="matrix(1.3320955,0,0,1.451049,97.672817,1348.1098)">
      <g
         id="g5065"
         transform="translate(82.785,-664.2)">
        <path
           d="M 0,0 -3.256,3.333"
           style="fill:none;stroke:#0000ff;stroke-width:0.97641271;stroke-linecap:butt;stroke-linejoin:miter;stroke-miterlimit:10;stroke-dasharray:none;stroke-opacity:1"
           id="path5067"
           inkscape:connector-curvature="0" />
      </g>
    </g>
    <path
       d="m 203.77999,389.3637 0.16685,0 0,-0.16683 -0.16685,0 0,0.16683 z"
       style="fill:#0000ff;fill-opacity:1;fill-rule:nonzero;stroke:none"
       id="path5069"
       inkscape:connector-curvature="0" />
    <g
       id="g5071"
       transform="matrix(1.3320955,0,0,1.451049,97.672817,1348.1098)">
      <g
         id="g5073"
         transform="translate(85.039,-641.893)">
        <path
           d="M 0,0 3.256,3.218"
           style="fill:none;stroke:#0000ff;stroke-width:0.97641271;stroke-linecap:butt;stroke-linejoin:miter;stroke-miterlimit:10;stroke-dasharray:none;stroke-opacity:1"
           id="path5075"
           inkscape:connector-curvature="0" />
      </g>
    </g>
    <path
       d="m 215.29162,421.72973 0.16685,0 0,-0.16684 -0.16685,0 0,0.16684 z"
       style="fill:#0000ff;fill-opacity:1;fill-rule:nonzero;stroke:none"
       id="path5077"
       inkscape:connector-curvature="0" />
    <g
       id="g5079"
       transform="matrix(1.3320955,0,0,1.451049,97.672817,1348.1098)">
      <g
         id="g5081"
         transform="translate(88.296,-641.893)">
        <path
           d="M 0,0 -3.256,3.218"
           style="fill:none;stroke:#0000ff;stroke-width:0.97641271;stroke-linecap:butt;stroke-linejoin:miter;stroke-miterlimit:10;stroke-dasharray:none;stroke-opacity:1"
           id="path5083"
           inkscape:connector-curvature="0" />
      </g>
    </g>
    <path
       d="m 210.95391,421.72973 0.16683,0 0,-0.16684 -0.16683,0 0,0.16684 z"
       style="fill:#0000ff;fill-opacity:1;fill-rule:nonzero;stroke:none"
       id="path5085"
       inkscape:connector-curvature="0" />
    <g
       id="g5087"
       transform="matrix(1.3320955,0,0,1.451049,97.672817,1348.1098)">
      <g
         id="g5089"
         transform="translate(92.554,-627.176)">
        <path
           d="M 0,0 3.256,3.218"
           style="fill:none;stroke:#0000ff;stroke-width:0.97641271;stroke-linecap:butt;stroke-linejoin:miter;stroke-miterlimit:10;stroke-dasharray:none;stroke-opacity:1"
           id="path5091"
           inkscape:connector-curvature="0" />
      </g>
    </g>
    <path
       d="m 225.46857,442.9178 0.16683,0 0,-0.16684 -0.16683,0 0,0.16684 z"
       style="fill:#0000ff;fill-opacity:1;fill-rule:nonzero;stroke:none"
       id="path5093"
       inkscape:connector-curvature="0" />
    <g
       id="g5095"
       transform="matrix(1.3320955,0,0,1.451049,97.672817,1348.1098)">
      <g
         id="g5097"
         transform="translate(95.81,-627.176)">
        <path
           d="M 0,0 -3.256,3.218"
           style="fill:none;stroke:#0000ff;stroke-width:0.97641271;stroke-linecap:butt;stroke-linejoin:miter;stroke-miterlimit:10;stroke-dasharray:none;stroke-opacity:1"
           id="path5099"
           inkscape:connector-curvature="0" />
      </g>
    </g>
    <path
       d="m 221.13085,442.9178 0.16684,0 0,-0.16684 -0.16684,0 0,0.16684 z"
       style="fill:#0000ff;fill-opacity:1;fill-rule:nonzero;stroke:none"
       id="path5101"
       inkscape:connector-curvature="0" />
    <g
       id="g5103"
       transform="matrix(1.3320955,0,0,1.451049,97.672817,1348.1098)">
      <g
         id="g5105"
         transform="translate(118.103,-619.588)">
        <path
           d="M 0,0 3.256,3.219"
           style="fill:none;stroke:#0000ff;stroke-width:0.97641271;stroke-linecap:butt;stroke-linejoin:miter;stroke-miterlimit:10;stroke-dasharray:none;stroke-opacity:1"
           id="path5107"
           inkscape:connector-curvature="0" />
      </g>
    </g>
    <path
       d="m 259.50294,454.09575 0.16685,0 0,-0.16683 -0.16685,0 0,0.16683 z"
       style="fill:#0000ff;fill-opacity:1;fill-rule:nonzero;stroke:none"
       id="path5109"
       inkscape:connector-curvature="0" />
    <g
       id="g5111"
       transform="matrix(1.3320955,0,0,1.451049,97.672817,1348.1098)">
      <g
         id="g5113"
         transform="translate(121.359,-619.588)">
        <path
           d="M 0,0 -3.256,3.219"
           style="fill:none;stroke:#0000ff;stroke-width:0.97641271;stroke-linecap:butt;stroke-linejoin:miter;stroke-miterlimit:10;stroke-dasharray:none;stroke-opacity:1"
           id="path5115"
           inkscape:connector-curvature="0" />
      </g>
    </g>
    <path
       d="m 255.16523,454.09575 0.16684,0 0,-0.16683 -0.16684,0 0,0.16683 z"
       style="fill:#0000ff;fill-opacity:1;fill-rule:nonzero;stroke:none"
       id="path5117"
       inkscape:connector-curvature="0" />
    <g
       id="g5119"
       transform="matrix(1.3320955,0,0,1.451049,97.672817,1348.1098)">
      <g
         id="g5121"
         transform="translate(112.718,-612.574)">
        <path
           d="M 0,0 3.256,3.333"
           style="fill:none;stroke:#0000ff;stroke-width:0.97641271;stroke-linecap:butt;stroke-linejoin:miter;stroke-miterlimit:10;stroke-dasharray:none;stroke-opacity:1"
           id="path5123"
           inkscape:connector-curvature="0" />
      </g>
    </g>
    <path
       d="m 252.1622,464.2727 0.16684,0 0,-0.16684 -0.16684,0 0,0.16684 z"
       style="fill:#0000ff;fill-opacity:1;fill-rule:nonzero;stroke:none"
       id="path5125"
       inkscape:connector-curvature="0" />
    <g
       id="g5127"
       transform="matrix(1.3320955,0,0,1.451049,97.672817,1348.1098)">
      <g
         id="g5129"
         transform="translate(115.975,-612.574)">
        <path
           d="M 0,0 -3.256,3.333"
           style="fill:none;stroke:#0000ff;stroke-width:0.97641271;stroke-linecap:butt;stroke-linejoin:miter;stroke-miterlimit:10;stroke-dasharray:none;stroke-opacity:1"
           id="path5131"
           inkscape:connector-curvature="0" />
      </g>
    </g>
    <path
       d="m 247.82448,464.2727 0.16684,0 0,-0.16684 -0.16684,0 0,0.16684 z"
       style="fill:#0000ff;fill-opacity:1;fill-rule:nonzero;stroke:none"
       id="path5133"
       inkscape:connector-curvature="0" />
    <g
       id="g5135"
       transform="matrix(1.3320955,0,0,1.451049,97.672817,1348.1098)">
      <g
         id="g5137"
         transform="translate(122.486,-606.595)">
        <path
           d="M 0,0 3.256,3.334"
           style="fill:none;stroke:#0000ff;stroke-width:0.97641271;stroke-linecap:butt;stroke-linejoin:miter;stroke-miterlimit:10;stroke-dasharray:none;stroke-opacity:1"
           id="path5139"
           inkscape:connector-curvature="0" />
      </g>
    </g>
    <path
       d="m 265.34218,472.94813 0.16683,0 0,-0.16693 -0.16683,0 0,0.16693 z"
       style="fill:#0000ff;fill-opacity:1;fill-rule:nonzero;stroke:none"
       id="path5141"
       inkscape:connector-curvature="0" />
    <g
       id="g5143"
       transform="matrix(1.3320955,0,0,1.451049,97.672817,1348.1098)">
      <g
         id="g5145"
         transform="translate(125.744,-606.595)">
        <path
           d="M 0,0 -3.256,3.334"
           style="fill:none;stroke:#0000ff;stroke-width:0.97641271;stroke-linecap:butt;stroke-linejoin:miter;stroke-miterlimit:10;stroke-dasharray:none;stroke-opacity:1"
           id="path5147"
           inkscape:connector-curvature="0" />
      </g>
    </g>
    <path
       d="m 260.83763,472.94813 0.16683,0 0,-0.16693 -0.16683,0 0,0.16693 z"
       style="fill:#0000ff;fill-opacity:1;fill-rule:nonzero;stroke:none"
       id="path5149"
       inkscape:connector-curvature="0" />
    <g
       id="g5151"
       transform="matrix(1.3320955,0,0,1.451049,97.672817,1348.1098)">
      <g
         id="g5153"
         transform="translate(128.999,-599.466)">
        <path
           d="M 0,0 3.256,3.218"
           style="fill:none;stroke:#0000ff;stroke-width:0.97641271;stroke-linecap:butt;stroke-linejoin:miter;stroke-miterlimit:10;stroke-dasharray:none;stroke-opacity:1"
           id="path5155"
           inkscape:connector-curvature="0" />
      </g>
    </g>
    <path
       d="m 274.01761,483.12508 0.16688,0 0,-0.16684 -0.16688,0 0,0.16684 z"
       style="fill:#0000ff;fill-opacity:1;fill-rule:nonzero;stroke:none"
       id="path5157"
       inkscape:connector-curvature="0" />
    <g
       id="g5159"
       transform="matrix(1.3320955,0,0,1.451049,97.672817,1348.1098)">
      <g
         id="g5161"
         transform="translate(132.255,-599.466)">
        <path
           d="M 0,0 -3.256,3.218"
           style="fill:none;stroke:#0000ff;stroke-width:0.97641271;stroke-linecap:butt;stroke-linejoin:miter;stroke-miterlimit:10;stroke-dasharray:none;stroke-opacity:1"
           id="path5163"
           inkscape:connector-curvature="0" />
      </g>
    </g>
    <path
       d="m 269.67988,483.12508 0.16681,0 0,-0.16684 -0.16681,0 0,0.16684 z"
       style="fill:#0000ff;fill-opacity:1;fill-rule:nonzero;stroke:none"
       id="path5165"
       inkscape:connector-curvature="0" />
    <g
       id="g5167"
       transform="matrix(1.3320955,0,0,1.451049,97.672817,1348.1098)">
      <g
         id="g5169"
         transform="translate(139.394,-597.857)">
        <path
           d="M 0,0 3.256,3.219"
           style="fill:none;stroke:#0000ff;stroke-width:0.97641271;stroke-linecap:butt;stroke-linejoin:miter;stroke-miterlimit:10;stroke-dasharray:none;stroke-opacity:1"
           id="path5171"
           inkscape:connector-curvature="0" />
      </g>
    </g>
    <path
       d="m 287.69809,485.6276 0.16685,0 0,-0.16683 -0.16685,0 0,0.16683 z"
       style="fill:#0000ff;fill-opacity:1;fill-rule:nonzero;stroke:none"
       id="path5173"
       inkscape:connector-curvature="0" />
    <g
       id="g5175"
       transform="matrix(1.3320955,0,0,1.451049,97.672817,1348.1098)">
      <g
         id="g5177"
         transform="translate(142.65,-597.857)">
        <path
           d="M 0,0 -3.256,3.219"
           style="fill:none;stroke:#0000ff;stroke-width:0.97641271;stroke-linecap:butt;stroke-linejoin:miter;stroke-miterlimit:10;stroke-dasharray:none;stroke-opacity:1"
           id="path5179"
           inkscape:connector-curvature="0" />
      </g>
    </g>
    <path
       d="m 283.36038,485.6276 0.16683,0 0,-0.16683 -0.16683,0 0,0.16683 z"
       style="fill:#0000ff;fill-opacity:1;fill-rule:nonzero;stroke:none"
       id="path5181"
       inkscape:connector-curvature="0" />
    <g
       id="g5183"
       transform="matrix(1.3320955,0,0,1.451049,97.672817,1348.1098)">
      <g
         id="g5185"
         transform="translate(169.202,-593.487)">
        <path
           d="M 0,0 3.256,3.219"
           style="fill:none;stroke:#0000ff;stroke-width:0.97641271;stroke-linecap:butt;stroke-linejoin:miter;stroke-miterlimit:10;stroke-dasharray:none;stroke-opacity:1"
           id="path5187"
           inkscape:connector-curvature="0" />
      </g>
    </g>
    <path
       d="m 327.5717,491.8005 0.16681,0 0,-0.16691 -0.16681,0 0,0.16691 z"
       style="fill:#0000ff;fill-opacity:1;fill-rule:nonzero;stroke:none"
       id="path5189"
       inkscape:connector-curvature="0" />
    <g
       id="g5191"
       transform="matrix(1.3320955,0,0,1.451049,97.672817,1348.1098)">
      <g
         id="g5193"
         transform="translate(172.458,-593.487)">
        <path
           d="M 0,0 -3.256,3.219"
           style="fill:none;stroke:#0000ff;stroke-width:0.97641271;stroke-linecap:butt;stroke-linejoin:miter;stroke-miterlimit:10;stroke-dasharray:none;stroke-opacity:1"
           id="path5195"
           inkscape:connector-curvature="0" />
      </g>
    </g>
    <path
       d="m 323.23398,491.8005 0.16684,0 0,-0.16691 -0.16684,0 0,0.16691 z"
       style="fill:#0000ff;fill-opacity:1;fill-rule:nonzero;stroke:none"
       id="path5197"
       inkscape:connector-curvature="0" />
    <g
       id="g5199"
       transform="matrix(1.3320955,0,0,1.451049,97.672817,1348.1098)">
      <g
         id="g5201"
         transform="translate(202.892,-590.844)">
        <path
           d="M 0,0 3.256,3.334"
           style="fill:none;stroke:#0000ff;stroke-width:0.97641271;stroke-linecap:butt;stroke-linejoin:miter;stroke-miterlimit:10;stroke-dasharray:none;stroke-opacity:1"
           id="path5203"
           inkscape:connector-curvature="0" />
      </g>
    </g>
    <path
       d="m 372.45036,495.80455 0.16684,0 0,-0.16684 -0.16684,0 0,0.16684 z"
       style="fill:#0000ff;fill-opacity:1;fill-rule:nonzero;stroke:none"
       id="path5205"
       inkscape:connector-curvature="0" />
    <g
       id="g5207"
       transform="matrix(1.3320955,0,0,1.451049,97.672817,1348.1098)">
      <g
         id="g5209"
         transform="translate(206.148,-590.844)">
        <path
           d="M 0,0 -3.256,3.334"
           style="fill:none;stroke:#0000ff;stroke-width:0.97641271;stroke-linecap:butt;stroke-linejoin:miter;stroke-miterlimit:10;stroke-dasharray:none;stroke-opacity:1"
           id="path5211"
           inkscape:connector-curvature="0" />
      </g>
    </g>
    <path
       d="m 368.11265,495.80455 0.16681,0 0,-0.16684 -0.16681,0 0,0.16684 z"
       style="fill:#0000ff;fill-opacity:1;fill-rule:nonzero;stroke:none"
       id="path5213"
       inkscape:connector-curvature="0" />
    <g
       id="g5215"
       transform="matrix(1.3320955,0,0,1.451049,97.672817,1348.1098)">
      <g
         id="g5217"
         transform="translate(229.569,-587.508)">
        <path
           d="M 0,0 3.255,3.219"
           style="fill:none;stroke:#0000ff;stroke-width:0.97641271;stroke-linecap:butt;stroke-linejoin:miter;stroke-miterlimit:10;stroke-dasharray:none;stroke-opacity:1"
           id="path5219"
           inkscape:connector-curvature="0" />
      </g>
    </g>
    <path
       d="m 407.81942,500.47593 0.16682,0 0,-0.16692 -0.16682,0 0,0.16692 z"
       style="fill:#0000ff;fill-opacity:1;fill-rule:nonzero;stroke:none"
       id="path5221"
       inkscape:connector-curvature="0" />
    <g
       id="g5223"
       transform="matrix(1.3320955,0,0,1.451049,97.672817,1348.1098)">
      <g
         id="g5225"
         transform="translate(232.824,-587.508)">
        <path
           d="M 0,0 -3.255,3.219"
           style="fill:none;stroke:#0000ff;stroke-width:0.97641271;stroke-linecap:butt;stroke-linejoin:miter;stroke-miterlimit:10;stroke-dasharray:none;stroke-opacity:1"
           id="path5227"
           inkscape:connector-curvature="0" />
      </g>
    </g>
    <path
       d="m 403.48171,500.47593 0.16683,0 0,-0.16692 -0.16683,0 0,0.16692 z"
       style="fill:#0000ff;fill-opacity:1;fill-rule:nonzero;stroke:none"
       id="path5229"
       inkscape:connector-curvature="0" />
    <text
       transform="scale(0.95727225,1.0446349)"
       style="font-variant:normal;font-weight:bold;font-size:12.83150196px;font-family:'Times New Roman';-inkscape-font-specification:'TimesNewRoman Bold';writing-mode:lr-tb;fill:#000000;fill-opacity:1;fill-rule:nonzero;stroke:none"
       id="text5231"
       x="302.10797"
       y="514.86609">
      <tspan
         x="302.10797 310.29446 314.83041 320.22864 324.76456 331.55759 336.09351 340.62946 345.16537 349.6962 355.79626 358.75906 363.28986 372.3566 382.98749"
         y="514.86609"
         sodipodi:role="line"
         id="tspan5233">Visibility (Km)</tspan>
    </text>
    <text
       transform="matrix(0,-0.95727225,1.0446349,0,0,0)"
       style="font-variant:normal;font-weight:bold;font-size:12.83150196px;font-family:'Times New Roman';-inkscape-font-specification:'TimesNewRoman Bold';writing-mode:lr-tb;fill:#000000;fill-opacity:1;fill-rule:nonzero;stroke:none"
       id="text5235"
       x="-491.44391"
       y="162.33304">
      <tspan
         x="-491.44391 -481.51486 -476.63504 -471.58069 -465.12909 -457.63928 -450.32278 -442.82919 -437.94937 -433.76242 -426.44205 -418.95233 -415.64053 -410.76068 -403.27094 -394.20807 -390.19437 -382.70465 -371.20248"
         y="162.33304"
         sodipodi:role="line"
         id="tspan5237">Attenuation (dB/km)</tspan>
    </text>
    <path
       d="m 269.51304,363.17058 194.02933,0 0,-47.38119 -194.02933,0 0,47.38119 z"
       style="fill:#ffffff;fill-opacity:1;fill-rule:nonzero;stroke:none"
       id="path5239"
       inkscape:connector-curvature="0" />
    <g
       id="g5241"
       transform="matrix(1.3902932,0,0,-1.3902932,269.51304,363.17058)">
      <path
         d="m 0,0 0,34.08 139.56,0 L 139.56,0 0,0"
         style="fill:none;stroke:#ffffff;stroke-width:0.10789091;stroke-linecap:butt;stroke-linejoin:miter;stroke-miterlimit:10;stroke-dasharray:none;stroke-opacity:1"
         id="path5243"
         inkscape:connector-curvature="0" />
    </g>
    <g
       id="g5245"
       transform="matrix(1.3902932,0,0,-1.3902932,269.51304,315.78939)">
      <path
         d="M 0,0 139.56,0"
         style="fill:none;stroke:#000000;stroke-width:0.10789091;stroke-linecap:butt;stroke-linejoin:miter;stroke-miterlimit:10;stroke-dasharray:none;stroke-opacity:1"
         id="path5247"
         inkscape:connector-curvature="0" />
    </g>
    <path
       d="m 463.54237,316.12306 0.16684,0 0,-0.16684 -0.16684,0 0,0.16684 z"
       style="fill:#000000;fill-opacity:1;fill-rule:nonzero;stroke:none"
       id="path5249"
       inkscape:connector-curvature="0" />
    <g
       id="g5251"
       transform="matrix(1.3902932,0,0,-1.3902932,269.51304,363.17058)">
      <path
         d="M 0,0 139.56,0"
         style="fill:none;stroke:#000000;stroke-width:0.10789091;stroke-linecap:butt;stroke-linejoin:miter;stroke-miterlimit:10;stroke-dasharray:none;stroke-opacity:1"
         id="path5253"
         inkscape:connector-curvature="0" />
    </g>
    <path
       d="m 463.54237,363.33741 0.16684,0 0,-0.16683 -0.16684,0 0,0.16683 z"
       style="fill:#000000;fill-opacity:1;fill-rule:nonzero;stroke:none"
       id="path5255"
       inkscape:connector-curvature="0" />
    <g
       id="g5257"
       transform="matrix(1.3902932,0,0,-1.3902932,463.54237,363.17058)">
      <path
         d="M 0,0 0,34.08"
         style="fill:none;stroke:#000000;stroke-width:0.10789091;stroke-linecap:butt;stroke-linejoin:miter;stroke-miterlimit:10;stroke-dasharray:none;stroke-opacity:1"
         id="path5259"
         inkscape:connector-curvature="0" />
    </g>
    <path
       d="m 463.54237,316.12306 0.16684,0 0,-0.16684 -0.16684,0 0,0.16684 z"
       style="fill:#000000;fill-opacity:1;fill-rule:nonzero;stroke:none"
       id="path5261"
       inkscape:connector-curvature="0" />
    <g
       id="g5263"
       transform="matrix(1.3902932,0,0,-1.3902932,269.51304,363.17058)">
      <path
         d="M 0,0 0,34.08"
         style="fill:none;stroke:#000000;stroke-width:0.10789091;stroke-linecap:butt;stroke-linejoin:miter;stroke-miterlimit:10;stroke-dasharray:none;stroke-opacity:1"
         id="path5265"
         inkscape:connector-curvature="0" />
    </g>
    <path
       d="m 269.67988,316.12306 0.16681,0 0,-0.16684 -0.16681,0 0,0.16684 z"
       style="fill:#000000;fill-opacity:1;fill-rule:nonzero;stroke:none"
       id="path5267"
       inkscape:connector-curvature="0" />
    <g
       id="g5269"
       transform="matrix(1.3902932,0,0,-1.3902932,269.51304,363.17058)">
      <path
         d="M 0,0 139.56,0"
         style="fill:none;stroke:#000000;stroke-width:0.10789091;stroke-linecap:butt;stroke-linejoin:miter;stroke-miterlimit:10;stroke-dasharray:none;stroke-opacity:1"
         id="path5271"
         inkscape:connector-curvature="0" />
    </g>
    <path
       d="m 463.54237,363.33741 0.16684,0 0,-0.16683 -0.16684,0 0,0.16683 z"
       style="fill:#000000;fill-opacity:1;fill-rule:nonzero;stroke:none"
       id="path5273"
       inkscape:connector-curvature="0" />
    <g
       id="g5275"
       transform="matrix(1.3902932,0,0,-1.3902932,269.51304,363.17058)">
      <path
         d="M 0,0 0,34.08"
         style="fill:none;stroke:#000000;stroke-width:0.10789091;stroke-linecap:butt;stroke-linejoin:miter;stroke-miterlimit:10;stroke-dasharray:none;stroke-opacity:1"
         id="path5277"
         inkscape:connector-curvature="0" />
    </g>
    <path
       d="m 269.67988,316.12306 0.16681,0 0,-0.16684 -0.16681,0 0,0.16684 z"
       style="fill:#000000;fill-opacity:1;fill-rule:nonzero;stroke:none"
       id="path5279"
       inkscape:connector-curvature="0" />
    <g
       id="g5281"
       transform="matrix(1.3902932,0,0,-1.3902932,269.51304,315.78939)">
      <path
         d="M 0,0 139.56,0"
         style="fill:none;stroke:#000000;stroke-width:0.10789091;stroke-linecap:butt;stroke-linejoin:miter;stroke-miterlimit:10;stroke-dasharray:none;stroke-opacity:1"
         id="path5283"
         inkscape:connector-curvature="0" />
    </g>
    <path
       d="m 463.54237,316.12306 0.16684,0 0,-0.16684 -0.16684,0 0,0.16684 z"
       style="fill:#000000;fill-opacity:1;fill-rule:nonzero;stroke:none"
       id="path5285"
       inkscape:connector-curvature="0" />
    <g
       id="g5287"
       transform="matrix(1.3902932,0,0,-1.3902932,269.51304,363.17058)">
      <path
         d="M 0,0 139.56,0"
         style="fill:none;stroke:#000000;stroke-width:0.10789091;stroke-linecap:butt;stroke-linejoin:miter;stroke-miterlimit:10;stroke-dasharray:none;stroke-opacity:1"
         id="path5289"
         inkscape:connector-curvature="0" />
    </g>
    <path
       d="m 463.54237,363.33741 0.16684,0 0,-0.16683 -0.16684,0 0,0.16683 z"
       style="fill:#000000;fill-opacity:1;fill-rule:nonzero;stroke:none"
       id="path5291"
       inkscape:connector-curvature="0" />
    <g
       id="g5293"
       transform="matrix(1.3902932,0,0,-1.3902932,463.54237,363.17058)">
      <path
         d="M 0,0 0,34.08"
         style="fill:none;stroke:#000000;stroke-width:0.10789091;stroke-linecap:butt;stroke-linejoin:miter;stroke-miterlimit:10;stroke-dasharray:none;stroke-opacity:1"
         id="path5295"
         inkscape:connector-curvature="0" />
    </g>
    <path
       d="m 463.54237,316.12306 0.16684,0 0,-0.16684 -0.16684,0 0,0.16684 z"
       style="fill:#000000;fill-opacity:1;fill-rule:nonzero;stroke:none"
       id="path5297"
       inkscape:connector-curvature="0" />
    <g
       id="g5299"
       transform="matrix(1.3902932,0,0,-1.3902932,269.51304,363.17058)">
      <path
         d="M 0,0 0,34.08"
         style="fill:none;stroke:#000000;stroke-width:0.10789091;stroke-linecap:butt;stroke-linejoin:miter;stroke-miterlimit:10;stroke-dasharray:none;stroke-opacity:1"
         id="path5301"
         inkscape:connector-curvature="0" />
    </g>
    <path
       d="m 269.67988,316.12306 0.16681,0 0,-0.16684 -0.16681,0 0,0.16684 z"
       style="fill:#000000;fill-opacity:1;fill-rule:nonzero;stroke:none"
       id="path5303"
       inkscape:connector-curvature="0" />
    <text
       transform="scale(0.95729168,1.0446137)"
       style="font-variant:normal;font-weight:normal;font-size:10.56707478px;font-family:'Times New Roman';-inkscape-font-specification:TimesNewRoman;writing-mode:lr-tb;fill:#000000;fill-opacity:1;fill-rule:nonzero;stroke:none"
       id="text5305"
       x="320.92395"
       y="314.75998">
      <tspan
         x="320.92395 329.98309 334.51743 339.05283 344.45575 347.41873 354.21548 361.70544 367.80157 370.93896 376.16754 380.70291 383.6691 388.2045 391.34186 394.3049 400.40103 404.06039 408.59579 413.99872 419.22733"
         y="314.75998"
         sodipodi:role="line"
         id="tspan5307">Mean ROF data, Prague</tspan>
    </text>
    <g
       id="g5309"
       transform="matrix(1.3902932,0,0,-1.3902932,292.70315,324.46482)">
      <path
         d="M 0,0 C 0,1.2 -0.96,2.28 -2.04,2.28 -3.24,2.28 -4.2,1.2 -4.2,0 c 0,-1.2 0.96,-2.28 2.16,-2.28 C -0.96,-2.28 0,-1.2 0,0 Z"
         style="fill:none;stroke:#0000ff;stroke-width:0.10789091;stroke-linecap:butt;stroke-linejoin:miter;stroke-miterlimit:10;stroke-dasharray:none;stroke-opacity:1"
         id="path5311"
         inkscape:connector-curvature="0" />
    </g>
    <text
       transform="scale(0.95729168,1.0446137)"
       style="font-variant:normal;font-weight:normal;font-size:10.56707478px;font-family:'Times New Roman';-inkscape-font-specification:TimesNewRoman;writing-mode:lr-tb;fill:#000000;fill-opacity:1;fill-rule:nonzero;stroke:none"
       id="text5313"
       x="320.92395"
       y="329.13385">
      <tspan
         x="320.92395 329.98309 334.52057 339.05807 344.46103 347.42404 354.22079 361.71072 367.80688 370.94421 376.17282 380.70822 383.67441 388.20981 391.34717 394.31015 401.78107 406.31857 411.72153 416.25903 420.79547 429.16458 432.12759 436.66507 439.63126 442.76865 447.30508 449.57489 452.53787 455.50092 460.90384 466.13245 471.53537 476.76398"
         y="329.13385"
         sodipodi:role="line"
         id="tspan5315">Mean ROF data, Nadeem et al, 2010.</tspan>
    </text>
    <g
       id="g5317"
       transform="matrix(1.3902932,0,0,-1.3902932,289.86695,343.31719)">
      <path
         d="M 0,0 2.04,2.76 0,5.64 -2.16,2.76 0,0 Z"
         style="fill:none;stroke:#0000ff;stroke-width:0.10789091;stroke-linecap:butt;stroke-linejoin:miter;stroke-miterlimit:10;stroke-dasharray:none;stroke-opacity:1"
         id="path5319"
         inkscape:connector-curvature="0" />
    </g>
    <text
       transform="scale(0.95729168,1.0446137)"
       style="font-variant:normal;font-weight:normal;font-size:10.56707478px;font-family:'Times New Roman';-inkscape-font-specification:TimesNewRoman;writing-mode:lr-tb;fill:#000000;fill-opacity:1;fill-rule:nonzero;stroke:none"
       id="text5321"
       x="320.92395"
       y="342.7092">
      <tspan
         x="320.92395 327.02747 331.56284 336.79144 339.9288 347.41873 351.95413 354.92032"
         y="342.7092"
         sodipodi:role="line"
         id="tspan5323">Lab Data</tspan>
    </text>
    <g
       id="g5325"
       transform="matrix(1.3320955,0,0,1.451049,97.672817,1348.1098)">
      <g
         id="g5327"
         transform="translate(142.65,-686.966)">
        <path
           d="M 0,0 3.256,3.219"
           style="fill:none;stroke:#0000ff;stroke-width:0.97641271;stroke-linecap:butt;stroke-linejoin:miter;stroke-miterlimit:10;stroke-dasharray:none;stroke-opacity:1"
           id="path5329"
           inkscape:connector-curvature="0" />
      </g>
    </g>
    <path
       d="m 292.03581,356.33034 0.16683,0 0,-0.16684 -0.16683,0 0,0.16684 z"
       style="fill:#0000ff;fill-opacity:1;fill-rule:nonzero;stroke:none"
       id="path5331"
       inkscape:connector-curvature="0" />
    <g
       id="g5333"
       transform="matrix(1.3320955,0,0,1.451049,97.672817,1348.1098)">
      <g
         id="g5335"
         transform="translate(145.907,-686.966)">
        <path
           d="M 0,0 -3.256,3.219"
           style="fill:none;stroke:#0000ff;stroke-width:0.97641271;stroke-linecap:butt;stroke-linejoin:miter;stroke-miterlimit:10;stroke-dasharray:none;stroke-opacity:1"
           id="path5337"
           inkscape:connector-curvature="0" />
      </g>
    </g>
    <path
       d="m 287.69809,356.33034 0.16685,0 0,-0.16684 -0.16685,0 0,0.16684 z"
       style="fill:#0000ff;fill-opacity:1;fill-rule:nonzero;stroke:none"
       id="path5339"
       inkscape:connector-curvature="0" />
  </g>
</svg>
