{signal: [
  {name: 'SYS_CLK', wave: '0P....|..'},
  {name: 'DV_TX', wave:  '01....|0.'},
  {name: "DOUT_TX[7:0]",  wave: "x=.====x.", data: ["1st", "2nd", "3rd",  "4th","last"] },
  {name: 'ACK_TX', wave: '0.10..|..'},

],
  }

